what,kind,bundleId,bundleVersion,description,time
deactivated,workbench,org.eclipse.ui.workbench,3.7.0.I20110519-0100,"",1463257628526
activated,workbench,org.eclipse.ui.workbench,3.7.0.I20110519-0100,"",1463257679984
executed,command,org.eclipse.ui,3.7.0.I20110602-0100,"org.eclipse.ui.edit.copy",1463257681842
executed,command,org.eclipse.ui,3.7.0.I20110602-0100,"org.eclipse.ui.edit.copy",1463257681962
executed,command,org.eclipse.ui,3.7.0.I20110602-0100,"org.eclipse.ui.edit.copy",1463257682116
deactivated,workbench,org.eclipse.ui.workbench,3.7.0.I20110519-0100,"",1463257686641
activated,workbench,org.eclipse.ui.workbench,3.7.0.I20110519-0100,"",1463257703459
executed,command,org.eclipse.ui,3.7.0.I20110602-0100,"org.eclipse.ui.edit.copy",1463257705508
executed,command,org.eclipse.ui,3.7.0.I20110602-0100,"org.eclipse.ui.edit.copy",1463257705658
executed,command,org.eclipse.ui,3.7.0.I20110602-0100,"org.eclipse.ui.edit.paste",1463257706924
deactivated,workbench,org.eclipse.ui.workbench,3.7.0.I20110519-0100,"",1463257714892
activated,workbench,org.eclipse.ui.workbench,3.7.0.I20110519-0100,"",1463257745871
deactivated,workbench,org.eclipse.ui.workbench,3.7.0.I20110519-0100,"",1463257764011
activated,workbench,org.eclipse.ui.workbench,3.7.0.I20110519-0100,"",1463257799660
deactivated,workbench,org.eclipse.ui.workbench,3.7.0.I20110519-0100,"",1463257808786
activated,workbench,org.eclipse.ui.workbench,3.7.0.I20110519-0100,"",1463257811092
executed,command,org.eclipse.ui,3.7.0.I20110602-0100,"org.eclipse.ui.edit.paste",1463257811406
executed,command,org.eclipse.ui,3.7.0.I20110602-0100,"org.eclipse.ui.file.save",1463257822606
deactivated,workbench,org.eclipse.ui.workbench,3.7.0.I20110519-0100,"",1463257830620
activated,workbench,org.eclipse.ui.workbench,3.7.0.I20110519-0100,"",1463257849645
deactivated,workbench,org.eclipse.ui.workbench,3.7.0.I20110519-0100,"",1463257867530
activated,workbench,org.eclipse.ui.workbench,3.7.0.I20110519-0100,"",1463257878082
deactivated,workbench,org.eclipse.ui.workbench,3.7.0.I20110519-0100,"",1463257896595
activated,workbench,org.eclipse.ui.workbench,3.7.0.I20110519-0100,"",1463257917427
deactivated,workbench,org.eclipse.ui.workbench,3.7.0.I20110519-0100,"",1463257924406
activated,workbench,org.eclipse.ui.workbench,3.7.0.I20110519-0100,"",1463257928812
executed,command,org.eclipse.ui,3.7.0.I20110602-0100,"org.eclipse.ui.edit.copy",1463257932736
executed,command,org.eclipse.ui,3.7.0.I20110602-0100,"org.eclipse.ui.edit.copy",1463257932746
executed,command,org.eclipse.ui,3.7.0.I20110602-0100,"org.eclipse.ui.edit.paste",1463257933691
deactivated,workbench,org.eclipse.ui.workbench,3.7.0.I20110519-0100,"",1463257935938
activated,workbench,org.eclipse.ui.workbench,3.7.0.I20110519-0100,"",1463257939504
executed,command,org.eclipse.ui,3.7.0.I20110602-0100,"org.eclipse.ui.edit.paste",1463257940537
deactivated,workbench,org.eclipse.ui.workbench,3.7.0.I20110519-0100,"",1463257946378
activated,workbench,org.eclipse.ui.workbench,3.7.0.I20110519-0100,"",1463257968679
executed,command,org.eclipse.ui,3.7.0.I20110602-0100,"org.eclipse.ui.edit.copy",1463257970236
executed,command,org.eclipse.ui,3.7.0.I20110602-0100,"org.eclipse.ui.edit.copy",1463257970396
executed,command,org.eclipse.ui,3.7.0.I20110602-0100,"org.eclipse.ui.edit.paste",1463257971586
deactivated,workbench,org.eclipse.ui.workbench,3.7.0.I20110519-0100,"",1463257987894
activated,workbench,org.eclipse.ui.workbench,3.7.0.I20110519-0100,"",1463258076208
executed,command,org.eclipse.ui,3.7.0.I20110602-0100,"org.eclipse.ui.file.save",1463258092677
executed,command,org.eclipse.ui,3.7.0.I20110602-0100,"org.eclipse.ui.edit.copy",1463258103112
executed,command,org.eclipse.ui,3.7.0.I20110602-0100,"org.eclipse.ui.edit.copy",1463258103214
executed,command,org.eclipse.ui,3.7.0.I20110602-0100,"org.eclipse.ui.edit.paste",1463258104486
deactivated,workbench,org.eclipse.ui.workbench,3.7.0.I20110519-0100,"",1463258105516
activated,workbench,org.eclipse.ui.workbench,3.7.0.I20110519-0100,"",1463258108641
executed,command,org.eclipse.ui,3.7.0.I20110602-0100,"org.eclipse.ui.edit.paste",1463258109643
executed,command,org.eclipse.ui,3.7.0.I20110602-0100,"org.eclipse.ui.edit.copy",1463258111543
executed,command,org.eclipse.ui,3.7.0.I20110602-0100,"org.eclipse.ui.edit.copy",1463258111723
executed,command,org.eclipse.ui,3.7.0.I20110602-0100,"org.eclipse.ui.edit.paste",1463258112523
deactivated,workbench,org.eclipse.ui.workbench,3.7.0.I20110519-0100,"",1463258114701
activated,workbench,org.eclipse.ui.workbench,3.7.0.I20110519-0100,"",1463258142693
executed,command,org.eclipse.ui,3.7.0.I20110602-0100,"org.eclipse.ui.edit.copy",1463258146109
executed,command,org.eclipse.ui,3.7.0.I20110602-0100,"org.eclipse.ui.edit.copy",1463258146269
executed,command,org.eclipse.ui,3.7.0.I20110602-0100,"org.eclipse.ui.edit.paste",1463258147459
deactivated,workbench,org.eclipse.ui.workbench,3.7.0.I20110519-0100,"",1463258150137
activated,workbench,org.eclipse.ui.workbench,3.7.0.I20110519-0100,"",1463258154201
executed,command,org.eclipse.ui,3.7.0.I20110602-0100,"org.eclipse.ui.edit.paste",1463258156338
executed,command,org.eclipse.ui,3.7.0.I20110602-0100,"org.eclipse.ui.edit.copy",1463258159272
executed,command,org.eclipse.ui,3.7.0.I20110602-0100,"org.eclipse.ui.edit.paste",1463258161313
deactivated,workbench,org.eclipse.ui.workbench,3.7.0.I20110519-0100,"",1463258173881
activated,workbench,org.eclipse.ui.workbench,3.7.0.I20110519-0100,"",1463258193883
executed,command,org.eclipse.ui,3.7.0.I20110602-0100,"org.eclipse.ui.edit.copy",1463258198378
executed,command,org.eclipse.ui,3.7.0.I20110602-0100,"org.eclipse.ui.edit.copy",1463258198378
executed,command,org.eclipse.ui,3.7.0.I20110602-0100,"org.eclipse.ui.edit.paste",1463258199500
deactivated,workbench,org.eclipse.ui.workbench,3.7.0.I20110519-0100,"",1463258217884
activated,workbench,org.eclipse.ui.workbench,3.7.0.I20110519-0100,"",1463258228296
executed,command,org.eclipse.ui,3.7.0.I20110602-0100,"org.eclipse.ui.edit.delete",1463258229376
deactivated,workbench,org.eclipse.ui.workbench,3.7.0.I20110519-0100,"",1463258245439
activated,workbench,org.eclipse.ui.workbench,3.7.0.I20110519-0100,"",1463258251867
executed,command,org.eclipse.ui,3.7.0.I20110602-0100,"org.eclipse.ui.edit.copy",1463258253378
executed,command,org.eclipse.ui,3.7.0.I20110602-0100,"org.eclipse.ui.edit.copy",1463258253517
executed,command,org.eclipse.ui,3.7.0.I20110602-0100,"org.eclipse.ui.edit.paste",1463258254777
deactivated,workbench,org.eclipse.ui.workbench,3.7.0.I20110519-0100,"",1463258256423
activated,workbench,org.eclipse.ui.workbench,3.7.0.I20110519-0100,"",1463258259591
executed,command,org.eclipse.ui,3.7.0.I20110602-0100,"org.eclipse.ui.edit.paste",1463258260805
executed,command,org.eclipse.ui,3.7.0.I20110602-0100,"org.eclipse.ui.edit.copy",1463258263469
executed,command,org.eclipse.ui,3.7.0.I20110602-0100,"org.eclipse.ui.edit.copy",1463258263619
executed,command,org.eclipse.ui,3.7.0.I20110602-0100,"org.eclipse.ui.edit.paste",1463258264369
deactivated,workbench,org.eclipse.ui.workbench,3.7.0.I20110519-0100,"",1463258268398
activated,workbench,org.eclipse.ui.workbench,3.7.0.I20110519-0100,"",1463258283396
executed,command,org.eclipse.ui,3.7.0.I20110602-0100,"org.eclipse.ui.edit.copy",1463258285471
executed,command,org.eclipse.ui,3.7.0.I20110602-0100,"org.eclipse.ui.edit.copy",1463258286165
executed,command,org.eclipse.ui,3.7.0.I20110602-0100,"org.eclipse.ui.edit.copy",1463258286165
executed,command,org.eclipse.ui,3.7.0.I20110602-0100,"org.eclipse.ui.edit.paste",1463258287035
executed,command,org.eclipse.ui,3.7.0.I20110602-0100,"org.eclipse.ui.edit.copy",1463258299505
executed,command,org.eclipse.ui,3.7.0.I20110602-0100,"org.eclipse.ui.edit.copy",1463258299635
executed,command,org.eclipse.ui,3.7.0.I20110602-0100,"org.eclipse.ui.edit.paste",1463258300767
deactivated,workbench,org.eclipse.ui.workbench,3.7.0.I20110519-0100,"",1463258309196
activated,workbench,org.eclipse.ui.workbench,3.7.0.I20110519-0100,"",1463258327664
executed,command,org.eclipse.ui,3.7.0.I20110602-0100,"org.eclipse.ui.edit.paste",1463258328919
deactivated,workbench,org.eclipse.ui.workbench,3.7.0.I20110519-0100,"",1463258331433
activated,workbench,org.eclipse.ui.workbench,3.7.0.I20110519-0100,"",1463258336276
executed,command,org.eclipse.ui,3.7.0.I20110602-0100,"org.eclipse.ui.edit.paste",1463258337818
executed,command,org.eclipse.ui,3.7.0.I20110602-0100,"org.eclipse.ui.edit.copy",1463258358101
executed,command,org.eclipse.ui,3.7.0.I20110602-0100,"org.eclipse.ui.edit.copy",1463258358251
executed,command,org.eclipse.ui,3.7.0.I20110602-0100,"org.eclipse.ui.edit.copy",1463258358381
executed,command,org.eclipse.ui,3.7.0.I20110602-0100,"org.eclipse.ui.edit.paste",1463258359401
executed,command,org.eclipse.ui,3.7.0.I20110602-0100,"org.eclipse.ui.edit.undo",1463258360401
executed,command,org.eclipse.ui,3.7.0.I20110602-0100,"org.eclipse.ui.edit.undo",1463258362103
executed,command,org.eclipse.ui,3.7.0.I20110602-0100,"org.eclipse.ui.edit.copy",1463258365035
executed,command,org.eclipse.ui,3.7.0.I20110602-0100,"org.eclipse.ui.edit.copy",1463258365185
executed,command,org.eclipse.ui,3.7.0.I20110602-0100,"org.eclipse.ui.edit.copy",1463258365315
executed,command,org.eclipse.ui,3.7.0.I20110602-0100,"org.eclipse.ui.edit.paste",1463258367895
deactivated,workbench,org.eclipse.ui.workbench,3.7.0.I20110519-0100,"",1463258394879
activated,workbench,org.eclipse.ui.workbench,3.7.0.I20110519-0100,"",1463258408355
executed,command,org.eclipse.ui,3.7.0.I20110602-0100,"org.eclipse.ui.edit.copy",1463258409169
executed,command,org.eclipse.ui,3.7.0.I20110602-0100,"org.eclipse.ui.edit.copy",1463258409258
executed,command,org.eclipse.ui,3.7.0.I20110602-0100,"org.eclipse.ui.edit.copy",1463258409367
executed,command,org.eclipse.ui,3.7.0.I20110602-0100,"org.eclipse.ui.edit.paste",1463258410332
deactivated,workbench,org.eclipse.ui.workbench,3.7.0.I20110519-0100,"",1463258411850
activated,workbench,org.eclipse.ui.workbench,3.7.0.I20110519-0100,"",1463258414383
executed,command,org.eclipse.ui,3.7.0.I20110602-0100,"org.eclipse.ui.edit.paste",1463258416191
executed,command,org.eclipse.ui,3.7.0.I20110602-0100,"org.eclipse.ui.file.save",1463258417642
deactivated,workbench,org.eclipse.ui.workbench,3.7.0.I20110519-0100,"",1463258421969
activated,workbench,org.eclipse.ui.workbench,3.7.0.I20110519-0100,"",1463258454824
executed,command,org.eclipse.ui,3.7.0.I20110602-0100,"org.eclipse.ui.edit.copy",1463258456924
executed,command,org.eclipse.ui,3.7.0.I20110602-0100,"org.eclipse.ui.edit.copy",1463258457074
executed,command,org.eclipse.ui,3.7.0.I20110602-0100,"org.eclipse.ui.edit.paste",1463258458214
deactivated,workbench,org.eclipse.ui.workbench,3.7.0.I20110519-0100,"",1463258468491
activated,workbench,org.eclipse.ui.workbench,3.7.0.I20110519-0100,"",1463258480931
executed,command,org.eclipse.ui,3.7.0.I20110602-0100,"org.eclipse.ui.edit.paste",1463258482062
deactivated,workbench,org.eclipse.ui.workbench,3.7.0.I20110519-0100,"",1463258484739
activated,workbench,org.eclipse.ui.workbench,3.7.0.I20110519-0100,"",1463258488882
executed,command,org.eclipse.ui,3.7.0.I20110602-0100,"org.eclipse.ui.edit.paste",1463258490138
deactivated,workbench,org.eclipse.ui.workbench,3.7.0.I20110519-0100,"",1463258497390
activated,workbench,org.eclipse.ui.workbench,3.7.0.I20110519-0100,"",1463258498719
executed,command,org.eclipse.ui,3.7.0.I20110602-0100,"org.eclipse.ui.edit.copy",1463258500375
executed,command,org.eclipse.ui,3.7.0.I20110602-0100,"org.eclipse.ui.edit.copy",1463258500525
executed,command,org.eclipse.ui,3.7.0.I20110602-0100,"org.eclipse.ui.edit.copy",1463258500655
executed,command,org.eclipse.ui,3.7.0.I20110602-0100,"org.eclipse.ui.edit.paste",1463258501777
deactivated,workbench,org.eclipse.ui.workbench,3.7.0.I20110519-0100,"",1463258513820
activated,workbench,org.eclipse.ui.workbench,3.7.0.I20110519-0100,"",1463258517764
executed,command,org.eclipse.ui,3.7.0.I20110602-0100,"org.eclipse.ui.edit.copy",1463258518418
executed,command,org.eclipse.ui,3.7.0.I20110602-0100,"org.eclipse.ui.edit.copy",1463258518593
executed,command,org.eclipse.ui,3.7.0.I20110602-0100,"org.eclipse.ui.edit.copy",1463258518674
executed,command,org.eclipse.ui,3.7.0.I20110602-0100,"org.eclipse.ui.edit.paste",1463258519910
deactivated,workbench,org.eclipse.ui.workbench,3.7.0.I20110519-0100,"",1463258528378
activated,workbench,org.eclipse.ui.workbench,3.7.0.I20110519-0100,"",1463258553352
executed,command,org.eclipse.ui,3.7.0.I20110602-0100,"org.eclipse.ui.edit.copy",1463258555005
executed,command,org.eclipse.ui,3.7.0.I20110602-0100,"org.eclipse.ui.edit.copy",1463258555166
executed,command,org.eclipse.ui,3.7.0.I20110602-0100,"org.eclipse.ui.edit.copy",1463258555333
executed,command,org.eclipse.ui,3.7.0.I20110602-0100,"org.eclipse.ui.edit.copy",1463258555536
executed,command,org.eclipse.ui,3.7.0.I20110602-0100,"org.eclipse.ui.edit.copy",1463258555718
executed,command,org.eclipse.ui,3.7.0.I20110602-0100,"org.eclipse.ui.edit.copy",1463258556394
executed,command,org.eclipse.ui,3.7.0.I20110602-0100,"org.eclipse.ui.edit.paste",1463258557895
deactivated,workbench,org.eclipse.ui.workbench,3.7.0.I20110519-0100,"",1463258566318
activated,workbench,org.eclipse.ui.workbench,3.7.0.I20110519-0100,"",1463258569688
executed,command,org.eclipse.ui,3.7.0.I20110602-0100,"org.eclipse.ui.edit.paste",1463258571552
deactivated,workbench,org.eclipse.ui.workbench,3.7.0.I20110519-0100,"",1463258573711
activated,workbench,org.eclipse.ui.workbench,3.7.0.I20110519-0100,"",1463258576485
executed,command,org.eclipse.ui,3.7.0.I20110602-0100,"org.eclipse.ui.edit.paste",1463258577777
executed,command,org.eclipse.ui,3.7.0.I20110602-0100,"org.eclipse.ui.file.save",1463258579831
executed,command,org.eclipse.ui,3.7.0.I20110602-0100,"org.eclipse.ui.edit.copy",1463258583366
executed,command,org.eclipse.ui,3.7.0.I20110602-0100,"org.eclipse.ui.edit.copy",1463258583513
executed,command,org.eclipse.ui,3.7.0.I20110602-0100,"org.eclipse.ui.edit.copy",1463258583645
executed,command,org.eclipse.ui,3.7.0.I20110602-0100,"org.eclipse.ui.edit.copy",1463258583811
executed,command,org.eclipse.ui,3.7.0.I20110602-0100,"org.eclipse.ui.edit.paste",1463258584801
deactivated,workbench,org.eclipse.ui.workbench,3.7.0.I20110519-0100,"",1463258586775
activated,workbench,org.eclipse.ui.workbench,3.7.0.I20110519-0100,"",1463258590233
executed,command,org.eclipse.ui,3.7.0.I20110602-0100,"org.eclipse.ui.edit.paste",1463258593575
executed,command,org.eclipse.ui,3.7.0.I20110602-0100,"org.eclipse.ui.edit.copy",1463258596077
executed,command,org.eclipse.ui,3.7.0.I20110602-0100,"org.eclipse.ui.edit.copy",1463258596169
executed,command,org.eclipse.ui,3.7.0.I20110602-0100,"org.eclipse.ui.edit.copy",1463258596303
executed,command,org.eclipse.ui,3.7.0.I20110602-0100,"org.eclipse.ui.edit.paste",1463258597210
deactivated,workbench,org.eclipse.ui.workbench,3.7.0.I20110519-0100,"",1463258600996
activated,workbench,org.eclipse.ui.workbench,3.7.0.I20110519-0100,"",1463258611428
executed,command,org.eclipse.ui,3.7.0.I20110602-0100,"org.eclipse.ui.edit.copy",1463258613123
executed,command,org.eclipse.ui,3.7.0.I20110602-0100,"org.eclipse.ui.edit.copy",1463258613273
executed,command,org.eclipse.ui,3.7.0.I20110602-0100,"org.eclipse.ui.edit.copy",1463258613423
executed,command,org.eclipse.ui,3.7.0.I20110602-0100,"org.eclipse.ui.edit.paste",1463258615098
deactivated,workbench,org.eclipse.ui.workbench,3.7.0.I20110519-0100,"",1463258629188
activated,workbench,org.eclipse.ui.workbench,3.7.0.I20110519-0100,"",1463258635653
executed,command,org.eclipse.ui,3.7.0.I20110602-0100,"org.eclipse.ui.edit.paste",1463258636881
deactivated,workbench,org.eclipse.ui.workbench,3.7.0.I20110519-0100,"",1463258639638
activated,workbench,org.eclipse.ui.workbench,3.7.0.I20110519-0100,"",1463258642807
executed,command,org.eclipse.ui,3.7.0.I20110602-0100,"org.eclipse.ui.edit.paste",1463258645173
executed,command,org.eclipse.ui,3.7.0.I20110602-0100,"org.eclipse.ui.file.save",1463258650035
deactivated,workbench,org.eclipse.ui.workbench,3.7.0.I20110519-0100,"",1463258652907
activated,workbench,org.eclipse.ui.workbench,3.7.0.I20110519-0100,"",1463258656152
executed,command,org.eclipse.ui,3.7.0.I20110602-0100,"org.eclipse.ui.edit.copy",1463258657394
executed,command,org.eclipse.ui,3.7.0.I20110602-0100,"org.eclipse.ui.edit.copy",1463258657554
executed,command,org.eclipse.ui,3.7.0.I20110602-0100,"org.eclipse.ui.edit.paste",1463258658698
deactivated,workbench,org.eclipse.ui.workbench,3.7.0.I20110519-0100,"",1463258660977
activated,workbench,org.eclipse.ui.workbench,3.7.0.I20110519-0100,"",1463258663671
executed,command,org.eclipse.ui,3.7.0.I20110602-0100,"org.eclipse.ui.edit.paste",1463258664827
executed,command,org.eclipse.ui,3.7.0.I20110602-0100,"org.eclipse.ui.edit.copy",1463258666555
executed,command,org.eclipse.ui,3.7.0.I20110602-0100,"org.eclipse.ui.edit.copy",1463258666655
executed,command,org.eclipse.ui,3.7.0.I20110602-0100,"org.eclipse.ui.edit.paste",1463258668415
deactivated,workbench,org.eclipse.ui.workbench,3.7.0.I20110519-0100,"",1463258677978
activated,workbench,org.eclipse.ui.workbench,3.7.0.I20110519-0100,"",1463258697233
executed,command,org.eclipse.ui,3.7.0.I20110602-0100,"org.eclipse.ui.edit.copy",1463258698652
executed,command,org.eclipse.ui,3.7.0.I20110602-0100,"org.eclipse.ui.edit.copy",1463258698831
executed,command,org.eclipse.ui,3.7.0.I20110602-0100,"org.eclipse.ui.edit.paste",1463258700439
deactivated,workbench,org.eclipse.ui.workbench,3.7.0.I20110519-0100,"",1463258710627
activated,workbench,org.eclipse.ui.workbench,3.7.0.I20110519-0100,"",1463258713604
executed,command,org.eclipse.ui,3.7.0.I20110602-0100,"org.eclipse.ui.edit.paste",1463258714826
deactivated,workbench,org.eclipse.ui.workbench,3.7.0.I20110519-0100,"",1463258720027
activated,workbench,org.eclipse.ui.workbench,3.7.0.I20110519-0100,"",1463258723311
executed,command,org.eclipse.ui,3.7.0.I20110602-0100,"org.eclipse.ui.edit.paste",1463258724895
executed,command,org.eclipse.ui,3.7.0.I20110602-0100,"org.eclipse.ui.file.save",1463258727366
deactivated,workbench,org.eclipse.ui.workbench,3.7.0.I20110519-0100,"",1463258731217
activated,workbench,org.eclipse.ui.workbench,3.7.0.I20110519-0100,"",1463258733027
executed,command,org.eclipse.ui,3.7.0.I20110602-0100,"org.eclipse.ui.edit.copy",1463258734513
executed,command,org.eclipse.ui,3.7.0.I20110602-0100,"org.eclipse.ui.edit.copy",1463258734573
executed,command,org.eclipse.ui,3.7.0.I20110602-0100,"org.eclipse.ui.edit.copy",1463258734713
executed,command,org.eclipse.ui,3.7.0.I20110602-0100,"org.eclipse.ui.edit.paste",1463258735915
executed,command,org.eclipse.ui,3.7.0.I20110602-0100,"org.eclipse.ui.edit.copy",1463258744349
executed,command,org.eclipse.ui,3.7.0.I20110602-0100,"org.eclipse.ui.edit.copy",1463258744499
executed,command,org.eclipse.ui,3.7.0.I20110602-0100,"org.eclipse.ui.edit.paste",1463258745499
deactivated,workbench,org.eclipse.ui.workbench,3.7.0.I20110519-0100,"",1463258772480
activated,workbench,org.eclipse.ui.workbench,3.7.0.I20110519-0100,"",1463258786929
executed,command,org.eclipse.ui,3.7.0.I20110602-0100,"org.eclipse.ui.edit.copy",1463258789843
executed,command,org.eclipse.ui,3.7.0.I20110602-0100,"org.eclipse.ui.edit.copy",1463258790033
executed,command,org.eclipse.ui,3.7.0.I20110602-0100,"org.eclipse.ui.edit.copy",1463258790183
executed,command,org.eclipse.ui,3.7.0.I20110602-0100,"org.eclipse.ui.edit.copy",1463258790283
executed,command,org.eclipse.ui,3.7.0.I20110602-0100,"org.eclipse.ui.edit.paste",1463258791323
deactivated,workbench,org.eclipse.ui.workbench,3.7.0.I20110519-0100,"",1463258801866
activated,workbench,org.eclipse.ui.workbench,3.7.0.I20110519-0100,"",1463258808366
executed,command,org.eclipse.ui,3.7.0.I20110602-0100,"org.eclipse.ui.edit.paste",1463258809202
deactivated,workbench,org.eclipse.ui.workbench,3.7.0.I20110519-0100,"",1463258813501
activated,workbench,org.eclipse.ui.workbench,3.7.0.I20110519-0100,"",1463258816569
executed,command,org.eclipse.ui,3.7.0.I20110602-0100,"org.eclipse.ui.edit.paste",1463258817683
executed,command,org.eclipse.ui,3.7.0.I20110602-0100,"org.eclipse.ui.file.save",1463258819339
executed,command,org.eclipse.ui,3.7.0.I20110602-0100,"org.eclipse.ui.edit.copy",1463258826955
executed,command,org.eclipse.ui,3.7.0.I20110602-0100,"org.eclipse.ui.edit.copy",1463258827135
executed,command,org.eclipse.ui,3.7.0.I20110602-0100,"org.eclipse.ui.edit.copy",1463258827285
executed,command,org.eclipse.ui,3.7.0.I20110602-0100,"org.eclipse.ui.edit.paste",1463258828597
deactivated,workbench,org.eclipse.ui.workbench,3.7.0.I20110519-0100,"",1463258831202
activated,workbench,org.eclipse.ui.workbench,3.7.0.I20110519-0100,"",1463258835582
executed,command,org.eclipse.ui,3.7.0.I20110602-0100,"org.eclipse.ui.edit.paste",1463258836971
executed,command,org.eclipse.ui,3.7.0.I20110602-0100,"org.eclipse.ui.edit.copy",1463258840065
executed,command,org.eclipse.ui,3.7.0.I20110602-0100,"org.eclipse.ui.edit.copy",1463258840187
executed,command,org.eclipse.ui,3.7.0.I20110602-0100,"org.eclipse.ui.edit.paste",1463258840709
executed,command,org.eclipse.ui,3.7.0.I20110602-0100,"org.eclipse.ui.file.saveAll",1463258842655
deactivated,workbench,org.eclipse.ui.workbench,3.7.0.I20110519-0100,"",1463258852333
activated,workbench,org.eclipse.ui.workbench,3.7.0.I20110519-0100,"",1463258862151
executed,command,org.eclipse.ui,3.7.0.I20110602-0100,"org.eclipse.ui.edit.copy",1463258863907
executed,command,org.eclipse.ui,3.7.0.I20110602-0100,"org.eclipse.ui.edit.copy",1463258864137
executed,command,org.eclipse.ui,3.7.0.I20110602-0100,"org.eclipse.ui.edit.copy",1463258864193
executed,command,org.eclipse.ui,3.7.0.I20110602-0100,"org.eclipse.ui.edit.paste",1463258865153
deactivated,workbench,org.eclipse.ui.workbench,3.7.0.I20110519-0100,"",1463258872849
activated,workbench,org.eclipse.ui.workbench,3.7.0.I20110519-0100,"",1463258880439
executed,command,org.eclipse.ui,3.7.0.I20110602-0100,"org.eclipse.ui.edit.paste",1463258882360
deactivated,workbench,org.eclipse.ui.workbench,3.7.0.I20110519-0100,"",1463258886169
activated,workbench,org.eclipse.ui.workbench,3.7.0.I20110519-0100,"",1463258889724
executed,command,org.eclipse.ui,3.7.0.I20110602-0100,"org.eclipse.ui.edit.paste",1463258891408
executed,command,org.eclipse.ui,3.7.0.I20110602-0100,"org.eclipse.ui.file.save",1463258892833
deactivated,workbench,org.eclipse.ui.workbench,3.7.0.I20110519-0100,"",1463258905940
activated,workbench,org.eclipse.ui.workbench,3.7.0.I20110519-0100,"",1463258910161
executed,command,org.eclipse.ui,3.7.0.I20110602-0100,"org.eclipse.ui.edit.copy",1463258911570
executed,command,org.eclipse.ui,3.7.0.I20110602-0100,"org.eclipse.ui.edit.copy",1463258911730
executed,command,org.eclipse.ui,3.7.0.I20110602-0100,"org.eclipse.ui.edit.copy",1463258911880
executed,command,org.eclipse.ui,3.7.0.I20110602-0100,"org.eclipse.ui.edit.paste",1463258912891
deactivated,workbench,org.eclipse.ui.workbench,3.7.0.I20110519-0100,"",1463258914409
activated,workbench,org.eclipse.ui.workbench,3.7.0.I20110519-0100,"",1463258916951
executed,command,org.eclipse.ui,3.7.0.I20110602-0100,"org.eclipse.ui.edit.paste",1463258918662
executed,command,org.eclipse.ui,3.7.0.I20110602-0100,"org.eclipse.ui.edit.copy",1463258920820
executed,command,org.eclipse.ui,3.7.0.I20110602-0100,"org.eclipse.ui.edit.copy",1463258920960
executed,command,org.eclipse.ui,3.7.0.I20110602-0100,"org.eclipse.ui.edit.copy",1463258921090
executed,command,org.eclipse.ui,3.7.0.I20110602-0100,"org.eclipse.ui.edit.paste",1463258921840
deactivated,workbench,org.eclipse.ui.workbench,3.7.0.I20110519-0100,"",1463258923437
activated,workbench,org.eclipse.ui.workbench,3.7.0.I20110519-0100,"",1463258939507
executed,command,org.eclipse.ui,3.7.0.I20110602-0100,"org.eclipse.ui.edit.copy",1463258941375
executed,command,org.eclipse.ui,3.7.0.I20110602-0100,"org.eclipse.ui.edit.copy",1463258941515
executed,command,org.eclipse.ui,3.7.0.I20110602-0100,"org.eclipse.ui.edit.copy",1463258941635
executed,command,org.eclipse.ui,3.7.0.I20110602-0100,"org.eclipse.ui.edit.paste",1463258942837
executed,command,org.eclipse.ui,3.7.0.I20110602-0100,"org.eclipse.ui.file.save",1463258944417
deactivated,workbench,org.eclipse.ui.workbench,3.7.0.I20110519-0100,"",1463258957726
activated,workbench,org.eclipse.ui.workbench,3.7.0.I20110519-0100,"",1463258962003
executed,command,org.eclipse.ui,3.7.0.I20110602-0100,"org.eclipse.ui.edit.paste",1463258963563
deactivated,workbench,org.eclipse.ui.workbench,3.7.0.I20110519-0100,"",1463258966472
activated,workbench,org.eclipse.ui.workbench,3.7.0.I20110519-0100,"",1463258970096
executed,command,org.eclipse.ui,3.7.0.I20110602-0100,"org.eclipse.ui.edit.paste",1463258971047
deactivated,workbench,org.eclipse.ui.workbench,3.7.0.I20110519-0100,"",1463258975982
activated,workbench,org.eclipse.ui.workbench,3.7.0.I20110519-0100,"",1463258978183
executed,command,org.eclipse.ui,3.7.0.I20110602-0100,"org.eclipse.ui.edit.copy",1463258981562
executed,command,org.eclipse.ui,3.7.0.I20110602-0100,"org.eclipse.ui.edit.copy",1463258981706
executed,command,org.eclipse.ui,3.7.0.I20110602-0100,"org.eclipse.ui.edit.copy",1463258981851
executed,command,org.eclipse.ui,3.7.0.I20110602-0100,"org.eclipse.ui.edit.paste",1463258983192
deactivated,workbench,org.eclipse.ui.workbench,3.7.0.I20110519-0100,"",1463258985752
activated,workbench,org.eclipse.ui.workbench,3.7.0.I20110519-0100,"",1463258988263
executed,command,org.eclipse.ui,3.7.0.I20110602-0100,"org.eclipse.ui.edit.paste",1463258989378
executed,command,org.eclipse.ui,3.7.0.I20110602-0100,"org.eclipse.ui.edit.copy",1463258995789
executed,command,org.eclipse.ui,3.7.0.I20110602-0100,"org.eclipse.ui.edit.copy",1463258995907
executed,command,org.eclipse.ui,3.7.0.I20110602-0100,"org.eclipse.ui.edit.copy",1463258996061
executed,command,org.eclipse.ui,3.7.0.I20110602-0100,"org.eclipse.ui.edit.paste",1463258997331
executed,command,org.eclipse.ui,3.7.0.I20110602-0100,"org.eclipse.ui.file.save",1463258998774
deactivated,workbench,org.eclipse.ui.workbench,3.7.0.I20110519-0100,"",1463259000829
activated,workbench,org.eclipse.ui.workbench,3.7.0.I20110519-0100,"",1463259030470
executed,command,org.eclipse.ui,3.7.0.I20110602-0100,"org.eclipse.ui.edit.copy",1463259032648
executed,command,org.eclipse.ui,3.7.0.I20110602-0100,"org.eclipse.ui.edit.copy",1463259032648
executed,command,org.eclipse.ui,3.7.0.I20110602-0100,"org.eclipse.ui.edit.copy",1463259032658
executed,command,org.eclipse.ui,3.7.0.I20110602-0100,"org.eclipse.ui.edit.paste",1463259033389
deactivated,workbench,org.eclipse.ui.workbench,3.7.0.I20110519-0100,"",1463259035031
activated,workbench,org.eclipse.ui.workbench,3.7.0.I20110519-0100,"",1463259036693
executed,command,org.eclipse.ui,3.7.0.I20110602-0100,"org.eclipse.ui.edit.paste",1463259037035
executed,command,org.eclipse.ui,3.7.0.I20110602-0100,"org.eclipse.ui.edit.delete",1463259038655
executed,command,org.eclipse.ui,3.7.0.I20110602-0100,"org.eclipse.ui.edit.paste",1463259041352
deactivated,workbench,org.eclipse.ui.workbench,3.7.0.I20110519-0100,"",1463259043874
activated,workbench,org.eclipse.ui.workbench,3.7.0.I20110519-0100,"",1463259046236
