what,kind,bundleId,bundleVersion,description,time
executed,command,org.eclipse.ui,3.7.0.I20110602-0100,"org.eclipse.ui.edit.text.contentAssist.proposals",1463280632067
executed,command,org.eclipse.ui,3.7.0.I20110602-0100,"org.eclipse.ui.edit.text.contentAssist.proposals",1463280645488
executed,command,,,"AUTOGEN:::org.eclipse.jdt.internal.ui.CompilationUnitEditor.ruler.actions/org.eclipse.jdt.internal.ui.javaeditor.JavaSelectRulerAction",1463280652118
deactivated,workbench,org.eclipse.ui.workbench,3.7.0.I20110519-0100,"",1463280652960
activated,workbench,org.eclipse.ui.workbench,3.7.0.I20110519-0100,"",1463280653212
deactivated,workbench,org.eclipse.ui.workbench,3.7.0.I20110519-0100,"",1463280653522
activated,workbench,org.eclipse.ui.workbench,3.7.0.I20110519-0100,"",1463280654244
executed,command,org.eclipse.ui,3.7.0.I20110602-0100,"org.eclipse.ui.file.saveAll",1463280655542
executed,command,org.eclipse.ui,3.7.0.I20110602-0100,"org.eclipse.ui.edit.delete",1463280668824
executed,command,org.eclipse.ui,3.7.0.I20110602-0100,"org.eclipse.ui.edit.copy",1463280671744
executed,command,org.eclipse.ui,3.7.0.I20110602-0100,"org.eclipse.ui.edit.paste",1463280672514
executed,command,org.eclipse.jdt.ui,3.7.1.r371_v20110824-0800,"org.eclipse.jdt.ui.edit.text.java.organize.imports",1463280673476
deactivated,workbench,org.eclipse.ui.workbench,3.7.0.I20110519-0100,"",1463280676259
activated,workbench,org.eclipse.ui.workbench,3.7.0.I20110519-0100,"",1463280681584
activated,view,org.eclipse.jdt.ui,3.7.1.r371_v20110824-0800,"org.eclipse.jdt.ui.PackageExplorer",1463280710547
activated,editor,org.eclipse.jdt.ui,3.7.1.r371_v20110824-0800,"org.eclipse.jdt.ui.CompilationUnitEditor",1463280710799
deactivated,workbench,org.eclipse.ui.workbench,3.7.0.I20110519-0100,"",1463280714743
activated,workbench,org.eclipse.ui.workbench,3.7.0.I20110519-0100,"",1463280718628
executed,command,org.eclipse.jdt.ui,3.7.1.r371_v20110824-0800,"org.eclipse.jdt.ui.edit.text.java.create.getter.setter",1463280718734
executed,command,org.eclipse.ui,3.7.0.I20110602-0100,"org.eclipse.ui.file.saveAll",1463280719890
activated,editor,org.eclipse.jdt.ui,3.7.1.r371_v20110824-0800,"org.eclipse.jdt.ui.CompilationUnitEditor",1463280720747
executed,command,org.eclipse.ui,3.7.0.I20110602-0100,"org.eclipse.ui.edit.text.contentAssist.proposals",1463280722667
executed,command,org.eclipse.ui,3.7.0.I20110602-0100,"org.eclipse.ui.edit.copy",1463280754059
executed,command,org.eclipse.ui,3.7.0.I20110602-0100,"org.eclipse.ui.edit.copy",1463280754226
executed,command,org.eclipse.ui,3.7.0.I20110602-0100,"org.eclipse.ui.edit.copy",1463280754341
executed,command,org.eclipse.ui,3.7.0.I20110602-0100,"org.eclipse.ui.edit.paste",1463280755889
executed,command,org.eclipse.ui,3.7.0.I20110602-0100,"org.eclipse.ui.edit.delete",1463280761908
executed,command,org.eclipse.ui,3.7.0.I20110602-0100,"org.eclipse.ui.edit.delete",1463280762681
executed,command,org.eclipse.jdt.ui,3.7.1.r371_v20110824-0800,"org.eclipse.jdt.ui.edit.text.java.organize.imports",1463280765416
executed,command,,,"AUTOGEN:::org.eclipse.jdt.internal.ui.CompilationUnitEditor.ruler.actions/org.eclipse.jdt.internal.ui.javaeditor.JavaSelectRulerAction",1463280773475
deactivated,workbench,org.eclipse.ui.workbench,3.7.0.I20110519-0100,"",1463280774425
activated,workbench,org.eclipse.ui.workbench,3.7.0.I20110519-0100,"",1463280774595
executed,command,org.eclipse.ui,3.7.0.I20110602-0100,"org.eclipse.ui.edit.copy",1463280776878
executed,command,org.eclipse.ui,3.7.0.I20110602-0100,"org.eclipse.ui.edit.paste",1463280778388
executed,command,org.eclipse.ui,3.7.0.I20110602-0100,"org.eclipse.ui.edit.paste",1463280779920
executed,command,org.eclipse.ui,3.7.0.I20110602-0100,"org.eclipse.ui.edit.paste",1463280781135
executed,command,org.eclipse.ui,3.7.0.I20110602-0100,"org.eclipse.ui.edit.paste",1463280781946
executed,command,org.eclipse.ui,3.7.0.I20110602-0100,"org.eclipse.ui.edit.paste",1463280782859
executed,command,org.eclipse.ui,3.7.0.I20110602-0100,"org.eclipse.ui.edit.paste",1463280784008
deactivated,workbench,org.eclipse.ui.workbench,3.7.0.I20110519-0100,"",1463280814916
activated,workbench,org.eclipse.ui.workbench,3.7.0.I20110519-0100,"",1463280822169
executed,command,org.eclipse.ui,3.7.0.I20110602-0100,"org.eclipse.ui.edit.text.contentAssist.proposals",1463280827716
executed,command,org.eclipse.ui,3.7.0.I20110602-0100,"org.eclipse.ui.file.saveAll",1463280831448
executed,command,,,"AUTOGEN:::org.eclipse.jdt.internal.ui.CompilationUnitEditor.ruler.actions/org.eclipse.jdt.internal.ui.javaeditor.JavaSelectRulerAction",1463280833464
deactivated,workbench,org.eclipse.ui.workbench,3.7.0.I20110519-0100,"",1463280842459
activated,workbench,org.eclipse.ui.workbench,3.7.0.I20110519-0100,"",1463280872311
executed,command,org.eclipse.ui,3.7.0.I20110602-0100,"org.eclipse.ui.edit.copy",1463280877289
executed,command,org.eclipse.ui,3.7.0.I20110602-0100,"org.eclipse.ui.edit.copy",1463280877378
executed,command,org.eclipse.ui,3.7.0.I20110602-0100,"org.eclipse.ui.edit.paste",1463280878407
executed,command,org.eclipse.ui,3.7.0.I20110602-0100,"org.eclipse.ui.edit.paste",1463280879484
deactivated,workbench,org.eclipse.ui.workbench,3.7.0.I20110519-0100,"",1463280883556
activated,workbench,org.eclipse.ui.workbench,3.7.0.I20110519-0100,"",1463280887471
executed,command,org.eclipse.ui,3.7.0.I20110602-0100,"org.eclipse.ui.edit.paste",1463280890117
deactivated,workbench,org.eclipse.ui.workbench,3.7.0.I20110519-0100,"",1463280893648
activated,workbench,org.eclipse.ui.workbench,3.7.0.I20110519-0100,"",1463280901008
executed,command,org.eclipse.ui,3.7.0.I20110602-0100,"org.eclipse.ui.edit.text.contentAssist.proposals",1463280904373
executed,command,,,"AUTOGEN:::org.eclipse.jdt.internal.ui.CompilationUnitEditor.ruler.actions/org.eclipse.jdt.internal.ui.javaeditor.JavaSelectRulerAction",1463280910121
deactivated,workbench,org.eclipse.ui.workbench,3.7.0.I20110519-0100,"",1463280910963
activated,workbench,org.eclipse.ui.workbench,3.7.0.I20110519-0100,"",1463280911152
executed,command,org.eclipse.ui,3.7.0.I20110602-0100,"org.eclipse.ui.file.saveAll",1463280913362
deactivated,workbench,org.eclipse.ui.workbench,3.7.0.I20110519-0100,"",1463280914392
activated,workbench,org.eclipse.ui.workbench,3.7.0.I20110519-0100,"",1463280919081
deactivated,workbench,org.eclipse.ui.workbench,3.7.0.I20110519-0100,"",1463280926318
activated,workbench,org.eclipse.ui.workbench,3.7.0.I20110519-0100,"",1463280928086
executed,command,org.eclipse.ui,3.7.0.I20110602-0100,"org.eclipse.ui.file.saveAll",1463280928220
executed,command,org.eclipse.ui,3.7.0.I20110602-0100,"org.eclipse.ui.file.saveAll",1463280939678
executed,command,,,"AUTOGEN:::org.eclipse.jdt.debug.CompilationUnitEditor.BreakpointRulerActions/org.eclipse.jdt.debug.ui.actions.ManageBreakpointRulerAction",1463280945137
deactivated,workbench,org.eclipse.ui.workbench,3.7.0.I20110519-0100,"",1463280948856
activated,workbench,org.eclipse.ui.workbench,3.7.0.I20110519-0100,"",1463280949128
executed,command,org.eclipse.jdt.debug.ui,3.6.1.v20110803_r371,"org.eclipse.jdt.debug.ui.localJavaShortcut.debug",1463280949194
executed,command,org.eclipse.debug.ui,3.7.101.v20110817_r371,"org.eclipse.debug.ui.commands.StepOver",1463280961187
executed,command,org.eclipse.debug.ui,3.7.101.v20110817_r371,"org.eclipse.debug.ui.commands.StepOver",1463280961712
executed,command,org.eclipse.debug.ui,3.7.101.v20110817_r371,"org.eclipse.debug.ui.commands.StepOver",1463280962214
deactivated,workbench,org.eclipse.ui.workbench,3.7.0.I20110519-0100,"",1463280971298
activated,workbench,org.eclipse.ui.workbench,3.7.0.I20110519-0100,"",1463280981584
executed,command,org.eclipse.debug.ui,3.7.101.v20110817_r371,"org.eclipse.debug.ui.commands.StepOver",1463280984102
activated,editor,org.eclipse.jdt.ui,3.7.1.r371_v20110824-0800,"org.eclipse.jdt.ui.CompilationUnitEditor",1463280984363
executed,command,org.eclipse.debug.ui,3.7.101.v20110817_r371,"org.eclipse.debug.ui.commands.StepOver",1463280985399
opened,editor,org.eclipse.jdt.ui,3.7.1.r371_v20110824-0800,"org.eclipse.jdt.ui.ClassFileEditor",1463280986333
activated,editor,org.eclipse.jdt.ui,3.7.1.r371_v20110824-0800,"org.eclipse.jdt.ui.ClassFileEditor",1463280988309
activated,view,org.eclipse.ui.console,3.5.100.v20110511,"org.eclipse.ui.console.ConsoleView",1463280991311
executed,command,org.eclipse.debug.ui,3.7.101.v20110817_r371,"org.eclipse.debug.ui.commands.StepOver",1463280991745
deactivated,workbench,org.eclipse.ui.workbench,3.7.0.I20110519-0100,"",1463280998470
activated,workbench,org.eclipse.ui.workbench,3.7.0.I20110519-0100,"",1463281000017
activated,editor,org.eclipse.jdt.ui,3.7.1.r371_v20110824-0800,"org.eclipse.jdt.ui.CompilationUnitEditor",1463281001963
executed,command,org.eclipse.ui,3.7.0.I20110602-0100,"org.eclipse.ui.edit.copy",1463281006812
executed,command,org.eclipse.ui,3.7.0.I20110602-0100,"org.eclipse.ui.edit.copy",1463281006958
executed,command,org.eclipse.ui,3.7.0.I20110602-0100,"org.eclipse.ui.edit.copy",1463281007088
executed,command,org.eclipse.ui,3.7.0.I20110602-0100,"org.eclipse.ui.edit.paste",1463281010420
executed,command,org.eclipse.ui,3.7.0.I20110602-0100,"org.eclipse.ui.file.saveAll",1463281017783
activated,view,org.eclipse.ui.console,3.5.100.v20110511,"org.eclipse.ui.console.ConsoleView",1463281018346
deactivated,workbench,org.eclipse.ui.workbench,3.7.0.I20110519-0100,"",1463281020581
activated,workbench,org.eclipse.ui.workbench,3.7.0.I20110519-0100,"",1463281021493
executed,command,org.eclipse.ui.ide,3.7.0.v20110809-1737,"org.eclipse.ui.project.cleanAction",1463281021503
activated,editor,org.eclipse.jdt.ui,3.7.1.r371_v20110824-0800,"org.eclipse.jdt.ui.CompilationUnitEditor",1463281023899
executed,command,org.eclipse.jdt.debug.ui,3.6.1.v20110803_r371,"org.eclipse.jdt.debug.ui.localJavaShortcut.run",1463281028652
executed,command,org.eclipse.jdt.debug.ui,3.6.1.v20110803_r371,"org.eclipse.jdt.debug.ui.localJavaShortcut.debug",1463281046838
executed,command,org.eclipse.debug.ui,3.7.101.v20110817_r371,"org.eclipse.debug.ui.commands.StepOver",1463281048534
executed,command,org.eclipse.debug.ui,3.7.101.v20110817_r371,"org.eclipse.debug.ui.commands.StepOver",1463281048823
executed,command,org.eclipse.debug.ui,3.7.101.v20110817_r371,"org.eclipse.debug.ui.commands.StepOver",1463281049106
executed,command,org.eclipse.ui,3.7.0.I20110602-0100,"org.eclipse.ui.edit.copy",1463281068661
executed,command,org.eclipse.ui,3.7.0.I20110602-0100,"org.eclipse.ui.edit.copy",1463281068787
executed,command,org.eclipse.ui,3.7.0.I20110602-0100,"org.eclipse.ui.edit.paste",1463281069697
executed,command,org.eclipse.ui,3.7.0.I20110602-0100,"org.eclipse.ui.file.save",1463281071238
deactivated,workbench,org.eclipse.ui.workbench,3.7.0.I20110519-0100,"",1463281072147
activated,workbench,org.eclipse.ui.workbench,3.7.0.I20110519-0100,"",1463281073865
executed,command,org.eclipse.debug.ui,3.7.101.v20110817_r371,"org.eclipse.debug.ui.commands.Resume",1463281076879
opened,editor,org.eclipse.debug.ui,3.7.101.v20110817_r371,"org.eclipse.debug.ui.sourcelookup.CommonSourceNotFoundEditor",1463281077139
activated,editor,org.eclipse.debug.ui,3.7.101.v20110817_r371,"org.eclipse.debug.ui.sourcelookup.CommonSourceNotFoundEditor",1463281077258
closed,editor,org.eclipse.jdt.ui,3.7.1.r371_v20110824-0800,"org.eclipse.jdt.ui.ClassFileEditor",1463281077282
activated,editor,org.eclipse.jdt.ui,3.7.1.r371_v20110824-0800,"org.eclipse.jdt.ui.CompilationUnitEditor",1463281078877
closed,editor,org.eclipse.debug.ui,3.7.101.v20110817_r371,"org.eclipse.debug.ui.sourcelookup.CommonSourceNotFoundEditor",1463281078877
executed,command,org.eclipse.debug.ui,3.7.101.v20110817_r371,"org.eclipse.debug.ui.commands.Resume",1463281079216
activated,view,org.eclipse.ui.console,3.5.100.v20110511,"org.eclipse.ui.console.ConsoleView",1463281080297
activated,editor,org.eclipse.jdt.ui,3.7.1.r371_v20110824-0800,"org.eclipse.jdt.ui.CompilationUnitEditor",1463281085706
executed,command,org.eclipse.jdt.debug.ui,3.6.1.v20110803_r371,"org.eclipse.jdt.debug.ui.localJavaShortcut.debug",1463281088586
executed,command,org.eclipse.debug.ui,3.7.101.v20110817_r371,"org.eclipse.debug.ui.commands.StepOver",1463281090778
executed,command,org.eclipse.debug.ui,3.7.101.v20110817_r371,"org.eclipse.debug.ui.commands.StepOver",1463281091203
executed,command,org.eclipse.debug.ui,3.7.101.v20110817_r371,"org.eclipse.debug.ui.commands.StepOver",1463281091813
deactivated,workbench,org.eclipse.ui.workbench,3.7.0.I20110519-0100,"",1463281093213
activated,workbench,org.eclipse.ui.workbench,3.7.0.I20110519-0100,"",1463281093982
executed,command,org.eclipse.debug.ui,3.7.101.v20110817_r371,"org.eclipse.debug.ui.commands.StepOver",1463281094290
deactivated,workbench,org.eclipse.ui.workbench,3.7.0.I20110519-0100,"",1463281094700
activated,workbench,org.eclipse.ui.workbench,3.7.0.I20110519-0100,"",1463281105590
deactivated,workbench,org.eclipse.ui.workbench,3.7.0.I20110519-0100,"",1463281106455
activated,workbench,org.eclipse.ui.workbench,3.7.0.I20110519-0100,"",1463281119636
executed,command,org.eclipse.debug.ui,3.7.101.v20110817_r371,"org.eclipse.debug.ui.commands.StepOver",1463281120491
executed,command,org.eclipse.jdt.debug.ui,3.6.1.v20110803_r371,"org.eclipse.jdt.debug.ui.commands.Inspect",1463281125335
deactivated,workbench,org.eclipse.ui.workbench,3.7.0.I20110519-0100,"",1463281125426
activated,workbench,org.eclipse.ui.workbench,3.7.0.I20110519-0100,"",1463281139462
executed,command,org.eclipse.jdt.debug.ui,3.6.1.v20110803_r371,"org.eclipse.jdt.debug.ui.commands.Inspect",1463281145323
deactivated,workbench,org.eclipse.ui.workbench,3.7.0.I20110519-0100,"",1463281145470
activated,workbench,org.eclipse.ui.workbench,3.7.0.I20110519-0100,"",1463281160119
executed,command,org.eclipse.debug.ui,3.7.101.v20110817_r371,"org.eclipse.debug.ui.commands.Resume",1463281162218
executed,command,org.eclipse.debug.ui,3.7.101.v20110817_r371,"org.eclipse.debug.ui.commands.Resume",1463281162861
executed,command,org.eclipse.ui.workbench.texteditor,3.7.0.v20110505-0800,"org.eclipse.ui.edit.text.select.lineStart",1463281196595
executed,command,org.eclipse.ui,3.7.0.I20110602-0100,"org.eclipse.ui.edit.undo",1463281198047
executed,command,org.eclipse.ui,3.7.0.I20110602-0100,"org.eclipse.ui.edit.cut",1463281199071
executed,command,org.eclipse.ui,3.7.0.I20110602-0100,"org.eclipse.ui.edit.paste",1463281202649
executed,command,org.eclipse.ui,3.7.0.I20110602-0100,"org.eclipse.ui.edit.text.contentAssist.proposals",1463281222119
executed,command,org.eclipse.ui,3.7.0.I20110602-0100,"org.eclipse.ui.edit.text.contentAssist.proposals",1463281239210
executed,command,org.eclipse.ui,3.7.0.I20110602-0100,"org.eclipse.ui.edit.text.contentAssist.proposals",1463281241461
executed,command,org.eclipse.ui,3.7.0.I20110602-0100,"org.eclipse.ui.edit.text.contentAssist.proposals",1463281258462
executed,command,org.eclipse.ui,3.7.0.I20110602-0100,"org.eclipse.ui.file.saveAll",1463281265799
activated,view,org.eclipse.ui.console,3.5.100.v20110511,"org.eclipse.ui.console.ConsoleView",1463281267174
activated,editor,org.eclipse.jdt.ui,3.7.1.r371_v20110824-0800,"org.eclipse.jdt.ui.CompilationUnitEditor",1463281268023
deactivated,workbench,org.eclipse.ui.workbench,3.7.0.I20110519-0100,"",1463281270788
activated,workbench,org.eclipse.ui.workbench,3.7.0.I20110519-0100,"",1463281274205
executed,command,org.eclipse.jdt.debug.ui,3.6.1.v20110803_r371,"org.eclipse.jdt.debug.ui.localJavaShortcut.debug",1463281274211
executed,command,org.eclipse.debug.ui,3.7.101.v20110817_r371,"org.eclipse.debug.ui.commands.StepOver",1463281289785
executed,command,org.eclipse.debug.ui,3.7.101.v20110817_r371,"org.eclipse.debug.ui.commands.StepOver",1463281290176
executed,command,org.eclipse.debug.ui,3.7.101.v20110817_r371,"org.eclipse.debug.ui.commands.StepOver",1463281290463
executed,command,org.eclipse.debug.ui,3.7.101.v20110817_r371,"org.eclipse.debug.ui.commands.StepOver",1463281290922
executed,command,org.eclipse.debug.ui,3.7.101.v20110817_r371,"org.eclipse.debug.ui.commands.StepOver",1463281291309
deactivated,workbench,org.eclipse.ui.workbench,3.7.0.I20110519-0100,"",1463281292628
activated,workbench,org.eclipse.ui.workbench,3.7.0.I20110519-0100,"",1463281293591
executed,command,org.eclipse.debug.ui,3.7.101.v20110817_r371,"org.eclipse.debug.ui.commands.StepOver",1463281294584
executed,command,org.eclipse.debug.ui,3.7.101.v20110817_r371,"org.eclipse.debug.ui.commands.StepOver",1463281295895
executed,command,org.eclipse.debug.ui,3.7.101.v20110817_r371,"org.eclipse.debug.ui.commands.StepOver",1463281296362
executed,command,org.eclipse.debug.ui,3.7.101.v20110817_r371,"org.eclipse.debug.ui.commands.StepOver",1463281296842
executed,command,org.eclipse.debug.ui,3.7.101.v20110817_r371,"org.eclipse.debug.ui.commands.StepOver",1463281297257
executed,command,,,"AUTOGEN:::org.eclipse.jdt.debug.CompilationUnitEditor.BreakpointRulerActions/org.eclipse.jdt.debug.ui.actions.ManageBreakpointRulerAction",1463281298805
executed,command,org.eclipse.debug.ui,3.7.101.v20110817_r371,"org.eclipse.debug.ui.commands.Resume",1463281300387
executed,command,,,"AUTOGEN:::org.eclipse.jdt.debug.CompilationUnitEditor.BreakpointRulerActions/org.eclipse.jdt.debug.ui.actions.ManageBreakpointRulerAction",1463281301232
executed,command,org.eclipse.debug.ui,3.7.101.v20110817_r371,"org.eclipse.debug.ui.commands.StepOver",1463281308037
executed,command,org.eclipse.debug.ui,3.7.101.v20110817_r371,"org.eclipse.debug.ui.commands.StepOver",1463281308433
executed,command,org.eclipse.debug.ui,3.7.101.v20110817_r371,"org.eclipse.debug.ui.commands.StepOver",1463281315714
executed,command,org.eclipse.jdt.debug.ui,3.6.1.v20110803_r371,"org.eclipse.jdt.debug.ui.commands.Inspect",1463281356778
deactivated,workbench,org.eclipse.ui.workbench,3.7.0.I20110519-0100,"",1463281356825
activated,workbench,org.eclipse.ui.workbench,3.7.0.I20110519-0100,"",1463281359930
executed,command,org.eclipse.jdt.debug.ui,3.6.1.v20110803_r371,"org.eclipse.jdt.debug.ui.commands.Inspect",1463281363962
deactivated,workbench,org.eclipse.ui.workbench,3.7.0.I20110519-0100,"",1463281364069
activated,workbench,org.eclipse.ui.workbench,3.7.0.I20110519-0100,"",1463281365575
activated,view,org.eclipse.debug.ui,3.7.101.v20110817_r371,"org.eclipse.debug.ui.DebugView",1463281365822
activated,editor,org.eclipse.jdt.ui,3.7.1.r371_v20110824-0800,"org.eclipse.jdt.ui.CompilationUnitEditor",1463281366510
executed,command,org.eclipse.debug.ui,3.7.101.v20110817_r371,"org.eclipse.debug.ui.commands.StepOver",1463281371811
executed,command,org.eclipse.debug.ui,3.7.101.v20110817_r371,"org.eclipse.debug.ui.commands.StepOver",1463281375054
deactivated,workbench,org.eclipse.ui.workbench,3.7.0.I20110519-0100,"",1463281376447
activated,workbench,org.eclipse.ui.workbench,3.7.0.I20110519-0100,"",1463281386707
executed,command,org.eclipse.debug.ui,3.7.101.v20110817_r371,"org.eclipse.debug.ui.commands.StepOver",1463281387115
executed,command,org.eclipse.debug.ui,3.7.101.v20110817_r371,"org.eclipse.debug.ui.commands.StepOver",1463281387496
executed,command,org.eclipse.debug.ui,3.7.101.v20110817_r371,"org.eclipse.debug.ui.commands.StepOver",1463281389338
executed,command,org.eclipse.debug.ui,3.7.101.v20110817_r371,"org.eclipse.debug.ui.commands.StepOver",1463281389946
deactivated,workbench,org.eclipse.ui.workbench,3.7.0.I20110519-0100,"",1463281392016
activated,workbench,org.eclipse.ui.workbench,3.7.0.I20110519-0100,"",1463281394725
deactivated,workbench,org.eclipse.ui.workbench,3.7.0.I20110519-0100,"",1463281396033
activated,workbench,org.eclipse.ui.workbench,3.7.0.I20110519-0100,"",1463281407320
executed,command,org.eclipse.ui,3.7.0.I20110602-0100,"org.eclipse.ui.edit.text.contentAssist.proposals",1463281414455
executed,command,org.eclipse.debug.ui,3.7.101.v20110817_r371,"org.eclipse.debug.ui.commands.StepOver",1463281423978
executed,command,org.eclipse.debug.ui,3.7.101.v20110817_r371,"org.eclipse.debug.ui.commands.StepOver",1463281424707
executed,command,org.eclipse.debug.ui,3.7.101.v20110817_r371,"org.eclipse.debug.ui.commands.StepOver",1463281426140
executed,command,org.eclipse.debug.ui,3.7.101.v20110817_r371,"org.eclipse.debug.ui.commands.StepOver",1463281432721
deactivated,workbench,org.eclipse.ui.workbench,3.7.0.I20110519-0100,"",1463281434109
activated,workbench,org.eclipse.ui.workbench,3.7.0.I20110519-0100,"",1463281500359
activated,view,org.eclipse.debug.ui,3.7.101.v20110817_r371,"org.eclipse.debug.ui.DebugView",1463281502557
executed,command,org.eclipse.debug.ui,3.7.101.v20110817_r371,"org.eclipse.debug.ui.commands.Terminate",1463281502595
activated,editor,org.eclipse.jdt.ui,3.7.1.r371_v20110824-0800,"org.eclipse.jdt.ui.CompilationUnitEditor",1463281503322
executed,command,org.eclipse.ui,3.7.0.I20110602-0100,"org.eclipse.ui.file.saveAll",1463281562654
executed,command,org.eclipse.ui,3.7.0.I20110602-0100,"org.eclipse.ui.file.saveAll",1463281584994
executed,command,,,"AUTOGEN:::org.eclipse.jdt.debug.CompilationUnitEditor.BreakpointRulerActions/org.eclipse.jdt.debug.ui.actions.ManageBreakpointRulerAction",1463281592349
deactivated,workbench,org.eclipse.ui.workbench,3.7.0.I20110519-0100,"",1463281595449
activated,workbench,org.eclipse.ui.workbench,3.7.0.I20110519-0100,"",1463281596976
executed,command,org.eclipse.jdt.debug.ui,3.6.1.v20110803_r371,"org.eclipse.jdt.debug.ui.localJavaShortcut.debug",1463281596982
executed,command,,,"AUTOGEN:::org.eclipse.jdt.debug.CompilationUnitEditor.BreakpointRulerActions/org.eclipse.jdt.debug.ui.actions.ManageBreakpointRulerAction",1463281598429
executed,command,org.eclipse.debug.ui,3.7.101.v20110817_r371,"org.eclipse.debug.ui.commands.StepOver",1463281604854
deactivated,workbench,org.eclipse.ui.workbench,3.7.0.I20110519-0100,"",1463281606637
activated,workbench,org.eclipse.ui.workbench,3.7.0.I20110519-0100,"",1463281611510
deactivated,workbench,org.eclipse.ui.workbench,3.7.0.I20110519-0100,"",1463281612647
activated,workbench,org.eclipse.ui.workbench,3.7.0.I20110519-0100,"",1463281613761
executed,command,org.eclipse.debug.ui,3.7.101.v20110817_r371,"org.eclipse.debug.ui.commands.Resume",1463281615475
executed,command,org.eclipse.debug.ui,3.7.101.v20110817_r371,"org.eclipse.debug.ui.commands.Resume",1463281637596
deactivated,workbench,org.eclipse.ui.workbench,3.7.0.I20110519-0100,"",1463281657680
activated,workbench,org.eclipse.ui.workbench,3.7.0.I20110519-0100,"",1463281678730
executed,command,org.eclipse.ui,3.7.0.I20110602-0100,"org.eclipse.ui.edit.delete",1463281687547
executed,command,org.eclipse.ui,3.7.0.I20110602-0100,"org.eclipse.ui.file.saveAll",1463281689669
deactivated,workbench,org.eclipse.ui.workbench,3.7.0.I20110519-0100,"",1463281690803
activated,workbench,org.eclipse.ui.workbench,3.7.0.I20110519-0100,"",1463281696898
activated,view,org.eclipse.ui.console,3.5.100.v20110511,"org.eclipse.ui.console.ConsoleView",1463281698426
activated,editor,org.eclipse.jdt.ui,3.7.1.r371_v20110824-0800,"org.eclipse.jdt.ui.CompilationUnitEditor",1463281700160
executed,command,org.eclipse.jdt.debug.ui,3.6.1.v20110803_r371,"org.eclipse.jdt.debug.ui.localJavaShortcut.debug",1463281701973
executed,command,org.eclipse.debug.ui,3.7.101.v20110817_r371,"org.eclipse.debug.ui.commands.Resume",1463281704406
executed,command,org.eclipse.debug.ui,3.7.101.v20110817_r371,"org.eclipse.debug.ui.commands.Resume",1463281715589
executed,command,,,"AUTOGEN:::org.eclipse.jdt.debug.CompilationUnitEditor.BreakpointRulerActions/org.eclipse.jdt.debug.ui.actions.ManageBreakpointRulerAction",1463281719617
activated,view,org.eclipse.ui.console,3.5.100.v20110511,"org.eclipse.ui.console.ConsoleView",1463281721189
deactivated,workbench,org.eclipse.ui.workbench,3.7.0.I20110519-0100,"",1463281756295
activated,workbench,org.eclipse.ui.workbench,3.7.0.I20110519-0100,"",1463281770972
deactivated,workbench,org.eclipse.ui.workbench,3.7.0.I20110519-0100,"",1463281818093
activated,workbench,org.eclipse.ui.workbench,3.7.0.I20110519-0100,"",1463281823723
deactivated,workbench,org.eclipse.ui.workbench,3.7.0.I20110519-0100,"",1463281824759
activated,workbench,org.eclipse.ui.workbench,3.7.0.I20110519-0100,"",1463281871349
activated,editor,org.eclipse.jdt.ui,3.7.1.r371_v20110824-0800,"org.eclipse.jdt.ui.CompilationUnitEditor",1463281874086
executed,command,org.eclipse.ui,3.7.0.I20110602-0100,"org.eclipse.ui.edit.copy",1463281911612
executed,command,org.eclipse.ui,3.7.0.I20110602-0100,"org.eclipse.ui.edit.paste",1463281912358
executed,command,org.eclipse.ui,3.7.0.I20110602-0100,"org.eclipse.ui.edit.delete",1463281920850
executed,command,org.eclipse.ui,3.7.0.I20110602-0100,"org.eclipse.ui.edit.delete",1463281923164
executed,command,org.eclipse.ui,3.7.0.I20110602-0100,"org.eclipse.ui.edit.delete",1463281923305
executed,command,org.eclipse.ui,3.7.0.I20110602-0100,"org.eclipse.ui.edit.delete",1463281923449
executed,command,org.eclipse.ui,3.7.0.I20110602-0100,"org.eclipse.ui.edit.delete",1463281923558
executed,command,org.eclipse.ui,3.7.0.I20110602-0100,"org.eclipse.ui.edit.copy",1463281936316
executed,command,org.eclipse.ui,3.7.0.I20110602-0100,"org.eclipse.ui.edit.copy",1463281936447
executed,command,org.eclipse.ui,3.7.0.I20110602-0100,"org.eclipse.ui.edit.paste",1463281937539
executed,command,org.eclipse.ui,3.7.0.I20110602-0100,"org.eclipse.ui.file.saveAll",1463281951707
executed,command,org.eclipse.ui,3.7.0.I20110602-0100,"org.eclipse.ui.edit.copy",1463281958114
executed,command,org.eclipse.ui,3.7.0.I20110602-0100,"org.eclipse.ui.edit.paste",1463281959113
executed,command,org.eclipse.ui,3.7.0.I20110602-0100,"org.eclipse.ui.file.saveAll",1463281974648
executed,command,org.eclipse.ui,3.7.0.I20110602-0100,"org.eclipse.ui.edit.delete",1463281983667
executed,command,org.eclipse.ui,3.7.0.I20110602-0100,"org.eclipse.ui.file.save",1463281988522
deactivated,workbench,org.eclipse.ui.workbench,3.7.0.I20110519-0100,"",1463281989293
activated,workbench,org.eclipse.ui.workbench,3.7.0.I20110519-0100,"",1463281990917
deactivated,workbench,org.eclipse.ui.workbench,3.7.0.I20110519-0100,"",1463281990935
