what,kind,bundleId,bundleVersion,description,time
activated,workbench,org.eclipse.ui.workbench,3.7.0.I20110519-0100,"",1463260437712
executed,command,org.eclipse.ui,3.7.0.I20110602-0100,"org.eclipse.ui.edit.paste",1463260440092
executed,command,org.eclipse.ui,3.7.0.I20110602-0100,"org.eclipse.ui.edit.copy",1463260443900
executed,command,org.eclipse.ui,3.7.0.I20110602-0100,"org.eclipse.ui.edit.copy",1463260444020
executed,command,org.eclipse.ui,3.7.0.I20110602-0100,"org.eclipse.ui.edit.paste",1463260446792
deactivated,workbench,org.eclipse.ui.workbench,3.7.0.I20110519-0100,"",1463260448497
activated,workbench,org.eclipse.ui.workbench,3.7.0.I20110519-0100,"",1463260453535
executed,command,org.eclipse.ui,3.7.0.I20110602-0100,"org.eclipse.ui.edit.paste",1463260454734
executed,command,org.eclipse.ui,3.7.0.I20110602-0100,"org.eclipse.ui.edit.copy",1463260456974
executed,command,org.eclipse.ui,3.7.0.I20110602-0100,"org.eclipse.ui.edit.copy",1463260457136
executed,command,org.eclipse.ui,3.7.0.I20110602-0100,"org.eclipse.ui.edit.copy",1463260457286
executed,command,org.eclipse.ui,3.7.0.I20110602-0100,"org.eclipse.ui.edit.paste",1463260460557
deactivated,workbench,org.eclipse.ui.workbench,3.7.0.I20110519-0100,"",1463260462258
activated,workbench,org.eclipse.ui.workbench,3.7.0.I20110519-0100,"",1463260485214
executed,command,org.eclipse.ui,3.7.0.I20110602-0100,"org.eclipse.ui.edit.copy",1463260489192
executed,command,org.eclipse.ui,3.7.0.I20110602-0100,"org.eclipse.ui.edit.copy",1463260489339
executed,command,org.eclipse.ui,3.7.0.I20110602-0100,"org.eclipse.ui.edit.copy",1463260489489
executed,command,org.eclipse.ui,3.7.0.I20110602-0100,"org.eclipse.ui.edit.paste",1463260490691
executed,command,org.eclipse.ui,3.7.0.I20110602-0100,"org.eclipse.ui.file.save",1463260506550
deactivated,workbench,org.eclipse.ui.workbench,3.7.0.I20110519-0100,"",1463260513712
activated,workbench,org.eclipse.ui.workbench,3.7.0.I20110519-0100,"",1463260516287
executed,command,org.eclipse.ui,3.7.0.I20110602-0100,"org.eclipse.ui.edit.paste",1463260517151
deactivated,workbench,org.eclipse.ui.workbench,3.7.0.I20110519-0100,"",1463260518895
activated,workbench,org.eclipse.ui.workbench,3.7.0.I20110519-0100,"",1463260521800
executed,command,org.eclipse.ui,3.7.0.I20110602-0100,"org.eclipse.ui.edit.paste",1463260522730
executed,command,org.eclipse.ui,3.7.0.I20110602-0100,"org.eclipse.ui.file.save",1463260524262
executed,command,org.eclipse.ui,3.7.0.I20110602-0100,"org.eclipse.ui.edit.copy",1463260529260
executed,command,org.eclipse.ui,3.7.0.I20110602-0100,"org.eclipse.ui.edit.copy",1463260529387
executed,command,org.eclipse.ui,3.7.0.I20110602-0100,"org.eclipse.ui.edit.copy",1463260529539
executed,command,org.eclipse.ui,3.7.0.I20110602-0100,"org.eclipse.ui.edit.paste",1463260530521
deactivated,workbench,org.eclipse.ui.workbench,3.7.0.I20110519-0100,"",1463260532229
activated,workbench,org.eclipse.ui.workbench,3.7.0.I20110519-0100,"",1463260536003
executed,command,org.eclipse.ui,3.7.0.I20110602-0100,"org.eclipse.ui.edit.paste",1463260537405
executed,command,org.eclipse.ui,3.7.0.I20110602-0100,"org.eclipse.ui.edit.copy",1463260543222
executed,command,org.eclipse.ui,3.7.0.I20110602-0100,"org.eclipse.ui.edit.copy",1463260543392
executed,command,org.eclipse.ui,3.7.0.I20110602-0100,"org.eclipse.ui.edit.paste",1463260545822
executed,command,org.eclipse.ui,3.7.0.I20110602-0100,"org.eclipse.ui.file.save",1463260546954
deactivated,workbench,org.eclipse.ui.workbench,3.7.0.I20110519-0100,"",1463260549647
activated,workbench,org.eclipse.ui.workbench,3.7.0.I20110519-0100,"",1463260576349
executed,command,org.eclipse.ui,3.7.0.I20110602-0100,"org.eclipse.ui.edit.copy",1463260579753
executed,command,org.eclipse.ui,3.7.0.I20110602-0100,"org.eclipse.ui.edit.copy",1463260579869
executed,command,org.eclipse.ui,3.7.0.I20110602-0100,"org.eclipse.ui.edit.paste",1463260580959
deactivated,workbench,org.eclipse.ui.workbench,3.7.0.I20110519-0100,"",1463260599806
activated,workbench,org.eclipse.ui.workbench,3.7.0.I20110519-0100,"",1463260602891
executed,command,org.eclipse.ui,3.7.0.I20110602-0100,"org.eclipse.ui.edit.paste",1463260603593
deactivated,workbench,org.eclipse.ui.workbench,3.7.0.I20110519-0100,"",1463260608581
activated,workbench,org.eclipse.ui.workbench,3.7.0.I20110519-0100,"",1463260612444
executed,command,org.eclipse.ui,3.7.0.I20110602-0100,"org.eclipse.ui.edit.paste",1463260613371
executed,command,org.eclipse.ui,3.7.0.I20110602-0100,"org.eclipse.ui.file.saveAll",1463260614869
deactivated,workbench,org.eclipse.ui.workbench,3.7.0.I20110519-0100,"",1463260615990
activated,workbench,org.eclipse.ui.workbench,3.7.0.I20110519-0100,"",1463260617955
executed,command,org.eclipse.ui,3.7.0.I20110602-0100,"org.eclipse.ui.edit.copy",1463260621285
executed,command,org.eclipse.ui,3.7.0.I20110602-0100,"org.eclipse.ui.edit.copy",1463260621355
executed,command,org.eclipse.ui,3.7.0.I20110602-0100,"org.eclipse.ui.edit.copy",1463260621475
executed,command,org.eclipse.ui,3.7.0.I20110602-0100,"org.eclipse.ui.edit.paste",1463260622615
deactivated,workbench,org.eclipse.ui.workbench,3.7.0.I20110519-0100,"",1463260624056
activated,workbench,org.eclipse.ui.workbench,3.7.0.I20110519-0100,"",1463260626741
executed,command,org.eclipse.ui,3.7.0.I20110602-0100,"org.eclipse.ui.edit.paste",1463260628443
executed,command,org.eclipse.ui,3.7.0.I20110602-0100,"org.eclipse.ui.edit.copy",1463260632747
executed,command,org.eclipse.ui,3.7.0.I20110602-0100,"org.eclipse.ui.edit.copy",1463260632897
executed,command,org.eclipse.ui,3.7.0.I20110602-0100,"org.eclipse.ui.edit.paste",1463260634973
executed,command,org.eclipse.ui,3.7.0.I20110602-0100,"org.eclipse.ui.file.save",1463260636353
deactivated,workbench,org.eclipse.ui.workbench,3.7.0.I20110519-0100,"",1463260637236
activated,workbench,org.eclipse.ui.workbench,3.7.0.I20110519-0100,"",1463260640782
deactivated,workbench,org.eclipse.ui.workbench,3.7.0.I20110519-0100,"",1463260650715
activated,workbench,org.eclipse.ui.workbench,3.7.0.I20110519-0100,"",1463260700095
deactivated,workbench,org.eclipse.ui.workbench,3.7.0.I20110519-0100,"",1463260715165
activated,workbench,org.eclipse.ui.workbench,3.7.0.I20110519-0100,"",1463260721149
executed,command,org.eclipse.jdt.ui,3.7.1.r371_v20110824-0800,"org.eclipse.jdt.ui.edit.text.java.create.getter.setter",1463260721459
executed,command,org.eclipse.ui,3.7.0.I20110602-0100,"org.eclipse.ui.file.save",1463260722683
activated,view,org.eclipse.jdt.ui,3.7.1.r371_v20110824-0800,"org.eclipse.jdt.ui.PackageExplorer",1463260768604
deactivated,workbench,org.eclipse.ui.workbench,3.7.0.I20110519-0100,"",1463260780102
activated,workbench,org.eclipse.ui.workbench,3.7.0.I20110519-0100,"",1463260789606
deactivated,workbench,org.eclipse.ui.workbench,3.7.0.I20110519-0100,"",1463260794933
started,bundle,org.eclipse.jdt.debug,3.7.1.v20110802_r371,"org.eclipse.jdt.debug",1463260802589
started,bundle,org.eclipse.debug.ui,3.7.101.v20110817_r371,"org.eclipse.debug.ui",1463260803513
started,bundle,org.eclipse.jdt.debug.ui,3.6.1.v20110803_r371,"org.eclipse.jdt.debug.ui",1463260804555
started,bundle,org.eclipse.jst.jsp.ui,1.1.601.v201108151912,"org.eclipse.jst.jsp.ui",1463260808866
started,bundle,org.eclipse.pde.core,3.7.1.v20110822-2108,"org.eclipse.pde.core",1463260810796
started,bundle,org.eclipse.wst.jsdt.debug.rhino.ui,1.0.0.v201103232243,"org.eclipse.wst.jsdt.debug.rhino.ui",1463260811046
activated,workbench,org.eclipse.ui.workbench,3.7.0.I20110519-0100,"",1463260812796
started,bundle,org.eclipse.wst.sse.core,1.1.601.v201108151912,"org.eclipse.wst.sse.core",1463260814251
started,bundle,org.eclipse.jst.jsp.core,1.2.401.v201108302147,"org.eclipse.jst.jsp.core",1463260814980
started,bundle,org.eclipse.wst.jsdt.manipulation,1.0.300.v201104272153,"org.eclipse.wst.jsdt.manipulation",1463260815834
started,bundle,org.eclipse.wst.jsdt.core,1.1.101.v201108151912,"org.eclipse.wst.jsdt.core",1463260819096
started,bundle,org.eclipse.wst.jsdt.ui,1.1.101.v201108151912,"org.eclipse.wst.jsdt.ui",1463260820130
deactivated,workbench,org.eclipse.ui.workbench,3.7.0.I20110519-0100,"",1463260824410
activated,workbench,org.eclipse.ui.workbench,3.7.0.I20110519-0100,"",1463260824698
executed,command,org.eclipse.ui,3.7.0.I20110602-0100,"org.eclipse.ui.edit.rename",1463260825429
started,bundle,org.eclipse.equinox.p2.garbagecollector,1.0.200.v20110510,"org.eclipse.equinox.p2.garbagecollector",1463260827449
deactivated,workbench,org.eclipse.ui.workbench,3.7.0.I20110519-0100,"",1463260988637
activated,workbench,org.eclipse.ui.workbench,3.7.0.I20110519-0100,"",1463261264108
activated,editor,org.eclipse.jdt.ui,3.7.1.r371_v20110824-0800,"org.eclipse.jdt.ui.CompilationUnitEditor",1463261264419
activated,view,org.eclipse.jdt.ui,3.7.1.r371_v20110824-0800,"org.eclipse.jdt.ui.PackageExplorer",1463261273536
deactivated,workbench,org.eclipse.ui.workbench,3.7.0.I20110519-0100,"",1463261293637
activated,workbench,org.eclipse.ui.workbench,3.7.0.I20110519-0100,"",1463262091214
deactivated,workbench,org.eclipse.ui.workbench,3.7.0.I20110519-0100,"",1463262261339
activated,workbench,org.eclipse.ui.workbench,3.7.0.I20110519-0100,"",1463266656193
activated,editor,org.eclipse.jdt.ui,3.7.1.r371_v20110824-0800,"org.eclipse.jdt.ui.CompilationUnitEditor",1463266661160
activated,view,org.eclipse.jdt.ui,3.7.1.r371_v20110824-0800,"org.eclipse.jdt.ui.PackageExplorer",1463266674025
deactivated,workbench,org.eclipse.ui.workbench,3.7.0.I20110519-0100,"",1463266683320
activated,workbench,org.eclipse.ui.workbench,3.7.0.I20110519-0100,"",1463266689558
opened,editor,org.eclipse.jdt.ui,3.7.1.r371_v20110824-0800,"org.eclipse.jdt.ui.CompilationUnitEditor",1463266692406
activated,editor,org.eclipse.jdt.ui,3.7.1.r371_v20110824-0800,"org.eclipse.jdt.ui.CompilationUnitEditor",1463266693281
activated,view,org.eclipse.jdt.ui,3.7.1.r371_v20110824-0800,"org.eclipse.jdt.ui.PackageExplorer",1463266693339
activated,editor,org.eclipse.jdt.ui,3.7.1.r371_v20110824-0800,"org.eclipse.jdt.ui.CompilationUnitEditor",1463266693538
executed,command,org.eclipse.ui,3.7.0.I20110602-0100,"org.eclipse.ui.edit.text.contentAssist.proposals",1463266758845
executed,command,org.eclipse.ui,3.7.0.I20110602-0100,"org.eclipse.ui.file.saveAll",1463266765346
deactivated,workbench,org.eclipse.ui.workbench,3.7.0.I20110519-0100,"",1463266770536
activated,workbench,org.eclipse.ui.workbench,3.7.0.I20110519-0100,"",1463266776952
executed,command,org.eclipse.jdt.ui,3.7.1.r371_v20110824-0800,"org.eclipse.jdt.ui.edit.text.java.create.getter.setter",1463266777110
executed,command,org.eclipse.ui,3.7.0.I20110602-0100,"org.eclipse.ui.file.saveAll",1463266778428
activated,editor,org.eclipse.jdt.ui,3.7.1.r371_v20110824-0800,"org.eclipse.jdt.ui.CompilationUnitEditor",1463266779512
closed,editor,org.eclipse.jdt.ui,3.7.1.r371_v20110824-0800,"org.eclipse.jdt.ui.CompilationUnitEditor",1463266779512
activated,view,org.eclipse.jdt.ui,3.7.1.r371_v20110824-0800,"org.eclipse.jdt.ui.PackageExplorer",1463266781526
deactivated,workbench,org.eclipse.ui.workbench,3.7.0.I20110519-0100,"",1463266784803
activated,workbench,org.eclipse.ui.workbench,3.7.0.I20110519-0100,"",1463266804445
opened,editor,org.eclipse.jdt.ui,3.7.1.r371_v20110824-0800,"org.eclipse.jdt.ui.CompilationUnitEditor",1463266804881
activated,editor,org.eclipse.jdt.ui,3.7.1.r371_v20110824-0800,"org.eclipse.jdt.ui.CompilationUnitEditor",1463266805051
deactivated,workbench,org.eclipse.ui.workbench,3.7.0.I20110519-0100,"",1463267080645
activated,workbench,org.eclipse.ui.workbench,3.7.0.I20110519-0100,"",1463267085142
deactivated,workbench,org.eclipse.ui.workbench,3.7.0.I20110519-0100,"",1463267135970
activated,workbench,org.eclipse.ui.workbench,3.7.0.I20110519-0100,"",1463267285057
executed,command,org.eclipse.ui,3.7.0.I20110602-0100,"org.eclipse.ui.file.save",1463267285478
deactivated,workbench,org.eclipse.ui.workbench,3.7.0.I20110519-0100,"",1463267329567
activated,workbench,org.eclipse.ui.workbench,3.7.0.I20110519-0100,"",1463267337064
executed,command,org.eclipse.jdt.ui,3.7.1.r371_v20110824-0800,"org.eclipse.jdt.ui.edit.text.java.create.getter.setter",1463267337131
executed,command,org.eclipse.ui,3.7.0.I20110602-0100,"org.eclipse.ui.file.saveAll",1463267339350
activated,view,org.eclipse.jdt.ui,3.7.1.r371_v20110824-0800,"org.eclipse.jdt.ui.PackageExplorer",1463267341577
deactivated,workbench,org.eclipse.ui.workbench,3.7.0.I20110519-0100,"",1463267344114
started,bundle,org.eclipse.wst.server.core,1.1.303.v20110816_1717,"org.eclipse.wst.server.core",1463267345053
started,bundle,org.eclipse.wst.server.ui,1.1.306.v20110823_1704,"org.eclipse.wst.server.ui",1463267345692
activated,workbench,org.eclipse.ui.workbench,3.7.0.I20110519-0100,"",1463267347390
deactivated,workbench,org.eclipse.ui.workbench,3.7.0.I20110519-0100,"",1463267351679
activated,workbench,org.eclipse.ui.workbench,3.7.0.I20110519-0100,"",1463267358259
opened,editor,org.eclipse.jdt.ui,3.7.1.r371_v20110824-0800,"org.eclipse.jdt.ui.CompilationUnitEditor",1463267361903
activated,editor,org.eclipse.jdt.ui,3.7.1.r371_v20110824-0800,"org.eclipse.jdt.ui.CompilationUnitEditor",1463267362173
executed,command,org.eclipse.jdt.ui,3.7.1.r371_v20110824-0800,"org.eclipse.jdt.ui.edit.text.java.organize.imports",1463267400413
executed,command,org.eclipse.ui,3.7.0.I20110602-0100,"org.eclipse.ui.edit.delete",1463267417569
executed,command,org.eclipse.ui,3.7.0.I20110602-0100,"org.eclipse.ui.edit.delete",1463267417615
executed,command,org.eclipse.ui,3.7.0.I20110602-0100,"org.eclipse.ui.edit.delete",1463267417777
executed,command,org.eclipse.ui,3.7.0.I20110602-0100,"org.eclipse.ui.edit.delete",1463267417917
executed,command,org.eclipse.jdt.ui,3.7.1.r371_v20110824-0800,"org.eclipse.jdt.ui.edit.text.java.organize.imports",1463267420771
executed,command,org.eclipse.ui,3.7.0.I20110602-0100,"org.eclipse.ui.file.saveAll",1463267424274
executed,command,,,"AUTOGEN:::org.eclipse.jdt.internal.ui.CompilationUnitEditor.ruler.actions/org.eclipse.jdt.internal.ui.javaeditor.JavaSelectRulerAction",1463267436664
executed,command,org.eclipse.ui,3.7.0.I20110602-0100,"org.eclipse.ui.file.saveAll",1463267452941
executed,command,org.eclipse.ui,3.7.0.I20110602-0100,"org.eclipse.ui.edit.text.contentAssist.proposals",1463267529987
executed,command,org.eclipse.ui,3.7.0.I20110602-0100,"org.eclipse.ui.edit.text.contentAssist.proposals",1463267563253
executed,command,org.eclipse.jdt.ui,3.7.1.r371_v20110824-0800,"org.eclipse.jdt.ui.edit.text.java.organize.imports",1463267565323
executed,command,org.eclipse.ui,3.7.0.I20110602-0100,"org.eclipse.ui.edit.copy",1463267569884
executed,command,org.eclipse.ui,3.7.0.I20110602-0100,"org.eclipse.ui.edit.paste",1463267571132
executed,command,org.eclipse.ui,3.7.0.I20110602-0100,"org.eclipse.ui.edit.copy",1463267609085
executed,command,org.eclipse.ui,3.7.0.I20110602-0100,"org.eclipse.ui.edit.paste",1463267610551
executed,command,org.eclipse.ui,3.7.0.I20110602-0100,"org.eclipse.ui.edit.text.contentAssist.proposals",1463267611513
executed,command,org.eclipse.ui,3.7.0.I20110602-0100,"org.eclipse.ui.file.saveAll",1463267658322
activated,view,org.eclipse.jdt.ui,3.7.1.r371_v20110824-0800,"org.eclipse.jdt.ui.PackageExplorer",1463267705338
activated,editor,org.eclipse.jdt.ui,3.7.1.r371_v20110824-0800,"org.eclipse.jdt.ui.CompilationUnitEditor",1463267705580
activated,view,org.eclipse.jdt.ui,3.7.1.r371_v20110824-0800,"org.eclipse.jdt.ui.PackageExplorer",1463267709298
deactivated,workbench,org.eclipse.ui.workbench,3.7.0.I20110519-0100,"",1463267712315
activated,workbench,org.eclipse.ui.workbench,3.7.0.I20110519-0100,"",1463267717985
activated,editor,org.eclipse.jdt.ui,3.7.1.r371_v20110824-0800,"org.eclipse.jdt.ui.CompilationUnitEditor",1463267719327
executed,command,org.eclipse.ui,3.7.0.I20110602-0100,"org.eclipse.ui.file.saveAll",1463267729279
activated,view,org.eclipse.jdt.ui,3.7.1.r371_v20110824-0800,"org.eclipse.jdt.ui.PackageExplorer",1463267730074
activated,editor,org.eclipse.jdt.ui,3.7.1.r371_v20110824-0800,"org.eclipse.jdt.ui.CompilationUnitEditor",1463267731785
activated,view,org.eclipse.jdt.ui,3.7.1.r371_v20110824-0800,"org.eclipse.jdt.ui.PackageExplorer",1463267734652
deactivated,workbench,org.eclipse.ui.workbench,3.7.0.I20110519-0100,"",1463267737229
activated,workbench,org.eclipse.ui.workbench,3.7.0.I20110519-0100,"",1463267742798
opened,editor,org.eclipse.jdt.ui,3.7.1.r371_v20110824-0800,"org.eclipse.jdt.ui.CompilationUnitEditor",1463267743258
activated,editor,org.eclipse.jdt.ui,3.7.1.r371_v20110824-0800,"org.eclipse.jdt.ui.CompilationUnitEditor",1463267743435
activated,editor,org.eclipse.jdt.ui,3.7.1.r371_v20110824-0800,"org.eclipse.jdt.ui.CompilationUnitEditor",1463267747727
closed,editor,org.eclipse.jdt.ui,3.7.1.r371_v20110824-0800,"org.eclipse.jdt.ui.CompilationUnitEditor",1463267747727
activated,view,org.eclipse.jdt.ui,3.7.1.r371_v20110824-0800,"org.eclipse.jdt.ui.PackageExplorer",1463267748982
deactivated,workbench,org.eclipse.ui.workbench,3.7.0.I20110519-0100,"",1463267750561
activated,workbench,org.eclipse.ui.workbench,3.7.0.I20110519-0100,"",1463267754915
executed,command,org.eclipse.ui,3.7.0.I20110602-0100,"org.eclipse.ui.edit.delete",1463267754925
deactivated,workbench,org.eclipse.ui.workbench,3.7.0.I20110519-0100,"",1463267758534
activated,workbench,org.eclipse.ui.workbench,3.7.0.I20110519-0100,"",1463267764235
opened,editor,org.eclipse.jdt.ui,3.7.1.r371_v20110824-0800,"org.eclipse.jdt.ui.CompilationUnitEditor",1463267764770
activated,editor,org.eclipse.jdt.ui,3.7.1.r371_v20110824-0800,"org.eclipse.jdt.ui.CompilationUnitEditor",1463267764978
deactivated,workbench,org.eclipse.ui.workbench,3.7.0.I20110519-0100,"",1463267781196
activated,workbench,org.eclipse.ui.workbench,3.7.0.I20110519-0100,"",1463267789252
executed,command,org.eclipse.ui,3.7.0.I20110602-0100,"org.eclipse.ui.file.save",1463267789403
deactivated,workbench,org.eclipse.ui.workbench,3.7.0.I20110519-0100,"",1463267794626
activated,workbench,org.eclipse.ui.workbench,3.7.0.I20110519-0100,"",1463267797831
deactivated,workbench,org.eclipse.ui.workbench,3.7.0.I20110519-0100,"",1463267819659
activated,workbench,org.eclipse.ui.workbench,3.7.0.I20110519-0100,"",1463267825985
deactivated,workbench,org.eclipse.ui.workbench,3.7.0.I20110519-0100,"",1463267846334
activated,workbench,org.eclipse.ui.workbench,3.7.0.I20110519-0100,"",1463267848421
executed,command,org.eclipse.ui.workbench.texteditor,3.7.0.v20110505-0800,"org.eclipse.ui.edit.text.smartEnter",1463267858393
deactivated,workbench,org.eclipse.ui.workbench,3.7.0.I20110519-0100,"",1463267861418
activated,workbench,org.eclipse.ui.workbench,3.7.0.I20110519-0100,"",1463267865203
executed,command,org.eclipse.ui,3.7.0.I20110602-0100,"org.eclipse.ui.file.save",1463267870366
activated,editor,org.eclipse.jdt.ui,3.7.1.r371_v20110824-0800,"org.eclipse.jdt.ui.CompilationUnitEditor",1463267881767
closed,editor,org.eclipse.jdt.ui,3.7.1.r371_v20110824-0800,"org.eclipse.jdt.ui.CompilationUnitEditor",1463267881767
activated,view,org.eclipse.jdt.ui,3.7.1.r371_v20110824-0800,"org.eclipse.jdt.ui.PackageExplorer",1463267883993
opened,editor,org.eclipse.jdt.ui,3.7.1.r371_v20110824-0800,"org.eclipse.jdt.ui.CompilationUnitEditor",1463267884253
activated,editor,org.eclipse.jdt.ui,3.7.1.r371_v20110824-0800,"org.eclipse.jdt.ui.CompilationUnitEditor",1463267884403
executed,command,org.eclipse.ui,3.7.0.I20110602-0100,"org.eclipse.ui.file.saveAll",1463267907710
executed,command,org.eclipse.ui,3.7.0.I20110602-0100,"org.eclipse.ui.file.save",1463267921954
activated,view,org.eclipse.jdt.ui,3.7.1.r371_v20110824-0800,"org.eclipse.jdt.ui.PackageExplorer",1463267924660
activated,editor,org.eclipse.jdt.ui,3.7.1.r371_v20110824-0800,"org.eclipse.jdt.ui.CompilationUnitEditor",1463267924947
deactivated,workbench,org.eclipse.ui.workbench,3.7.0.I20110519-0100,"",1463267929540
activated,workbench,org.eclipse.ui.workbench,3.7.0.I20110519-0100,"",1463267932642
executed,command,org.eclipse.ui,3.7.0.I20110602-0100,"org.eclipse.ui.edit.text.contentAssist.proposals",1463267937738
executed,command,org.eclipse.ui,3.7.0.I20110602-0100,"org.eclipse.ui.file.saveAll",1463267943552
executed,command,org.eclipse.jdt.ui,3.7.1.r371_v20110824-0800,"org.eclipse.jdt.ui.edit.text.java.organize.imports",1463267945449
executed,command,org.eclipse.ui,3.7.0.I20110602-0100,"org.eclipse.ui.file.saveAll",1463267957423
executed,command,org.eclipse.ui,3.7.0.I20110602-0100,"org.eclipse.ui.edit.copy",1463267963829
executed,command,org.eclipse.ui,3.7.0.I20110602-0100,"org.eclipse.ui.edit.copy",1463267964072
executed,command,org.eclipse.ui,3.7.0.I20110602-0100,"org.eclipse.ui.edit.paste",1463267966437
executed,command,org.eclipse.ui,3.7.0.I20110602-0100,"org.eclipse.ui.edit.paste",1463267968263
executed,command,org.eclipse.ui,3.7.0.I20110602-0100,"org.eclipse.ui.edit.paste",1463267969517
deactivated,workbench,org.eclipse.ui.workbench,3.7.0.I20110519-0100,"",1463267994874
activated,workbench,org.eclipse.ui.workbench,3.7.0.I20110519-0100,"",1463268079465
executed,command,org.eclipse.ui,3.7.0.I20110602-0100,"org.eclipse.ui.edit.undo",1463268082247
executed,command,org.eclipse.ui,3.7.0.I20110602-0100,"org.eclipse.ui.edit.undo",1463268083606
deactivated,workbench,org.eclipse.ui.workbench,3.7.0.I20110519-0100,"",1463268698682
activated,workbench,org.eclipse.ui.workbench,3.7.0.I20110519-0100,"",1463268710754
deactivated,workbench,org.eclipse.ui.workbench,3.7.0.I20110519-0100,"",1463268725741
activated,workbench,org.eclipse.ui.workbench,3.7.0.I20110519-0100,"",1463268735047
executed,command,org.eclipse.ui,3.7.0.I20110602-0100,"org.eclipse.ui.edit.copy",1463268740757
executed,command,org.eclipse.ui,3.7.0.I20110602-0100,"org.eclipse.ui.edit.copy",1463268740897
executed,command,org.eclipse.ui,3.7.0.I20110602-0100,"org.eclipse.ui.edit.paste",1463268742137
deactivated,workbench,org.eclipse.ui.workbench,3.7.0.I20110519-0100,"",1463268754459
activated,workbench,org.eclipse.ui.workbench,3.7.0.I20110519-0100,"",1463268757269
executed,command,org.eclipse.ui,3.7.0.I20110602-0100,"org.eclipse.ui.edit.paste",1463268759213
deactivated,workbench,org.eclipse.ui.workbench,3.7.0.I20110519-0100,"",1463268764129
activated,workbench,org.eclipse.ui.workbench,3.7.0.I20110519-0100,"",1463268768009
executed,command,org.eclipse.ui,3.7.0.I20110602-0100,"org.eclipse.ui.edit.paste",1463268769424
executed,command,org.eclipse.ui,3.7.0.I20110602-0100,"org.eclipse.ui.file.save",1463268779650
executed,command,org.eclipse.ui,3.7.0.I20110602-0100,"org.eclipse.ui.edit.copy",1463268783643
executed,command,org.eclipse.ui,3.7.0.I20110602-0100,"org.eclipse.ui.edit.copy",1463268783753
executed,command,org.eclipse.ui,3.7.0.I20110602-0100,"org.eclipse.ui.edit.paste",1463268789792
executed,command,org.eclipse.ui,3.7.0.I20110602-0100,"org.eclipse.ui.edit.copy",1463268793497
executed,command,org.eclipse.ui,3.7.0.I20110602-0100,"org.eclipse.ui.edit.copy",1463268793702
executed,command,org.eclipse.ui,3.7.0.I20110602-0100,"org.eclipse.ui.edit.copy",1463268793772
executed,command,org.eclipse.ui,3.7.0.I20110602-0100,"org.eclipse.ui.edit.paste",1463268797083
deactivated,workbench,org.eclipse.ui.workbench,3.7.0.I20110519-0100,"",1463268799820
activated,workbench,org.eclipse.ui.workbench,3.7.0.I20110519-0100,"",1463268811305
executed,command,org.eclipse.ui,3.7.0.I20110602-0100,"org.eclipse.ui.edit.paste",1463268811978
executed,command,org.eclipse.ui,3.7.0.I20110602-0100,"org.eclipse.ui.edit.copy",1463268818611
executed,command,org.eclipse.ui,3.7.0.I20110602-0100,"org.eclipse.ui.edit.copy",1463268818801
executed,command,org.eclipse.ui,3.7.0.I20110602-0100,"org.eclipse.ui.edit.copy",1463268818961
executed,command,org.eclipse.ui,3.7.0.I20110602-0100,"org.eclipse.ui.edit.paste",1463268821054
executed,command,org.eclipse.ui,3.7.0.I20110602-0100,"org.eclipse.ui.edit.paste",1463268822892
executed,command,org.eclipse.ui,3.7.0.I20110602-0100,"org.eclipse.ui.edit.paste",1463268826154
executed,command,org.eclipse.ui,3.7.0.I20110602-0100,"org.eclipse.ui.edit.paste",1463268827008
executed,command,org.eclipse.ui,3.7.0.I20110602-0100,"org.eclipse.ui.edit.paste",1463268830210
executed,command,org.eclipse.ui,3.7.0.I20110602-0100,"org.eclipse.ui.edit.copy",1463268839405
executed,command,org.eclipse.ui,3.7.0.I20110602-0100,"org.eclipse.ui.edit.copy",1463268839535
executed,command,org.eclipse.ui,3.7.0.I20110602-0100,"org.eclipse.ui.edit.paste",1463268841543
executed,command,org.eclipse.ui,3.7.0.I20110602-0100,"org.eclipse.ui.edit.undo",1463268843147
executed,command,org.eclipse.ui,3.7.0.I20110602-0100,"org.eclipse.ui.edit.paste",1463268844493
executed,command,org.eclipse.ui,3.7.0.I20110602-0100,"org.eclipse.ui.edit.paste",1463268847321
executed,command,org.eclipse.ui,3.7.0.I20110602-0100,"org.eclipse.ui.edit.paste",1463268848824
executed,command,org.eclipse.ui,3.7.0.I20110602-0100,"org.eclipse.ui.edit.paste",1463268849804
executed,command,org.eclipse.ui,3.7.0.I20110602-0100,"org.eclipse.ui.edit.paste",1463268858122
executed,command,org.eclipse.ui,3.7.0.I20110602-0100,"org.eclipse.ui.edit.copy",1463268864346
executed,command,org.eclipse.ui,3.7.0.I20110602-0100,"org.eclipse.ui.edit.copy",1463268864496
executed,command,org.eclipse.ui,3.7.0.I20110602-0100,"org.eclipse.ui.edit.copy",1463268864656
executed,command,org.eclipse.ui,3.7.0.I20110602-0100,"org.eclipse.ui.edit.paste",1463268866236
deactivated,workbench,org.eclipse.ui.workbench,3.7.0.I20110519-0100,"",1463268867670
activated,workbench,org.eclipse.ui.workbench,3.7.0.I20110519-0100,"",1463268868152
executed,command,org.eclipse.ui,3.7.0.I20110602-0100,"org.eclipse.ui.edit.paste",1463268869099
executed,command,org.eclipse.ui,3.7.0.I20110602-0100,"org.eclipse.ui.edit.paste",1463268870321
executed,command,org.eclipse.ui,3.7.0.I20110602-0100,"org.eclipse.ui.edit.paste",1463268873522
deactivated,workbench,org.eclipse.ui.workbench,3.7.0.I20110519-0100,"",1463268874590
activated,workbench,org.eclipse.ui.workbench,3.7.0.I20110519-0100,"",1463268878683
executed,command,org.eclipse.ui,3.7.0.I20110602-0100,"org.eclipse.ui.edit.paste",1463268878994
executed,command,org.eclipse.ui,3.7.0.I20110602-0100,"org.eclipse.ui.edit.copy",1463268887785
executed,command,org.eclipse.ui,3.7.0.I20110602-0100,"org.eclipse.ui.edit.copy",1463268887975
executed,command,org.eclipse.ui,3.7.0.I20110602-0100,"org.eclipse.ui.edit.copy",1463268888215
executed,command,org.eclipse.ui,3.7.0.I20110602-0100,"org.eclipse.ui.edit.paste",1463268889997
executed,command,org.eclipse.ui,3.7.0.I20110602-0100,"org.eclipse.ui.edit.paste",1463268891267
executed,command,org.eclipse.ui,3.7.0.I20110602-0100,"org.eclipse.ui.edit.paste",1463268892138
