what,kind,bundleId,bundleVersion,description,time
executed,command,org.eclipse.ui,3.7.0.I20110602-0100,"org.eclipse.ui.edit.paste",1463259047033
deactivated,workbench,org.eclipse.ui.workbench,3.7.0.I20110519-0100,"",1463259049159
activated,workbench,org.eclipse.ui.workbench,3.7.0.I20110519-0100,"",1463259052157
executed,command,org.eclipse.ui,3.7.0.I20110602-0100,"org.eclipse.ui.edit.paste",1463259053278
executed,command,org.eclipse.ui,3.7.0.I20110602-0100,"org.eclipse.ui.file.save",1463259054849
executed,command,org.eclipse.ui,3.7.0.I20110602-0100,"org.eclipse.ui.edit.copy",1463259062244
executed,command,org.eclipse.ui,3.7.0.I20110602-0100,"org.eclipse.ui.edit.copy",1463259062392
executed,command,org.eclipse.ui,3.7.0.I20110602-0100,"org.eclipse.ui.edit.copy",1463259062502
executed,command,org.eclipse.ui,3.7.0.I20110602-0100,"org.eclipse.ui.edit.paste",1463259063492
deactivated,workbench,org.eclipse.ui.workbench,3.7.0.I20110519-0100,"",1463259065171
activated,workbench,org.eclipse.ui.workbench,3.7.0.I20110519-0100,"",1463259069989
executed,command,org.eclipse.ui,3.7.0.I20110602-0100,"org.eclipse.ui.edit.paste",1463259071210
executed,command,org.eclipse.ui,3.7.0.I20110602-0100,"org.eclipse.ui.edit.copy",1463259073022
executed,command,org.eclipse.ui,3.7.0.I20110602-0100,"org.eclipse.ui.edit.copy",1463259073164
executed,command,org.eclipse.ui,3.7.0.I20110602-0100,"org.eclipse.ui.edit.copy",1463259073314
executed,command,org.eclipse.ui,3.7.0.I20110602-0100,"org.eclipse.ui.edit.paste",1463259074066
executed,command,org.eclipse.ui,3.7.0.I20110602-0100,"org.eclipse.ui.file.save",1463259075279
deactivated,workbench,org.eclipse.ui.workbench,3.7.0.I20110519-0100,"",1463259077643
activated,workbench,org.eclipse.ui.workbench,3.7.0.I20110519-0100,"",1463259096611
executed,command,org.eclipse.ui,3.7.0.I20110602-0100,"org.eclipse.ui.edit.copy",1463259099996
executed,command,org.eclipse.ui,3.7.0.I20110602-0100,"org.eclipse.ui.edit.copy",1463259100176
executed,command,org.eclipse.ui,3.7.0.I20110602-0100,"org.eclipse.ui.edit.copy",1463259100326
executed,command,org.eclipse.ui,3.7.0.I20110602-0100,"org.eclipse.ui.edit.paste",1463259101536
executed,command,org.eclipse.ui,3.7.0.I20110602-0100,"org.eclipse.ui.file.save",1463259114017
deactivated,workbench,org.eclipse.ui.workbench,3.7.0.I20110519-0100,"",1463259117494
activated,workbench,org.eclipse.ui.workbench,3.7.0.I20110519-0100,"",1463259131445
executed,command,org.eclipse.ui,3.7.0.I20110602-0100,"org.eclipse.ui.edit.paste",1463259132105
deactivated,workbench,org.eclipse.ui.workbench,3.7.0.I20110519-0100,"",1463259139988
activated,workbench,org.eclipse.ui.workbench,3.7.0.I20110519-0100,"",1463259146055
executed,command,org.eclipse.ui,3.7.0.I20110602-0100,"org.eclipse.ui.edit.paste",1463259147571
executed,command,org.eclipse.ui,3.7.0.I20110602-0100,"org.eclipse.ui.edit.copy",1463259150980
executed,command,org.eclipse.ui,3.7.0.I20110602-0100,"org.eclipse.ui.edit.copy",1463259151141
executed,command,org.eclipse.ui,3.7.0.I20110602-0100,"org.eclipse.ui.edit.copy",1463259151277
executed,command,org.eclipse.ui,3.7.0.I20110602-0100,"org.eclipse.ui.edit.paste",1463259152534
deactivated,workbench,org.eclipse.ui.workbench,3.7.0.I20110519-0100,"",1463259153805
activated,workbench,org.eclipse.ui.workbench,3.7.0.I20110519-0100,"",1463259158267
executed,command,org.eclipse.ui,3.7.0.I20110602-0100,"org.eclipse.ui.edit.paste",1463259159560
executed,command,org.eclipse.ui,3.7.0.I20110602-0100,"org.eclipse.ui.file.save",1463259166115
deactivated,workbench,org.eclipse.ui.workbench,3.7.0.I20110519-0100,"",1463259169463
activated,workbench,org.eclipse.ui.workbench,3.7.0.I20110519-0100,"",1463259202449
executed,command,org.eclipse.ui,3.7.0.I20110602-0100,"org.eclipse.ui.edit.copy",1463259204281
executed,command,org.eclipse.ui,3.7.0.I20110602-0100,"org.eclipse.ui.edit.copy",1463259204421
executed,command,org.eclipse.ui,3.7.0.I20110602-0100,"org.eclipse.ui.edit.copy",1463259204551
executed,command,org.eclipse.ui,3.7.0.I20110602-0100,"org.eclipse.ui.edit.paste",1463259205701
deactivated,workbench,org.eclipse.ui.workbench,3.7.0.I20110519-0100,"",1463259220289
activated,workbench,org.eclipse.ui.workbench,3.7.0.I20110519-0100,"",1463259239841
executed,command,org.eclipse.ui,3.7.0.I20110602-0100,"org.eclipse.ui.edit.paste",1463259240778
deactivated,workbench,org.eclipse.ui.workbench,3.7.0.I20110519-0100,"",1463259242633
activated,workbench,org.eclipse.ui.workbench,3.7.0.I20110519-0100,"",1463259246427
executed,command,org.eclipse.ui,3.7.0.I20110602-0100,"org.eclipse.ui.edit.paste",1463259247706
executed,command,org.eclipse.ui,3.7.0.I20110602-0100,"org.eclipse.ui.file.save",1463259250185
executed,command,org.eclipse.ui,3.7.0.I20110602-0100,"org.eclipse.ui.edit.copy",1463259256258
executed,command,org.eclipse.ui,3.7.0.I20110602-0100,"org.eclipse.ui.edit.copy",1463259256504
executed,command,org.eclipse.ui,3.7.0.I20110602-0100,"org.eclipse.ui.edit.copy",1463259256622
executed,command,org.eclipse.ui,3.7.0.I20110602-0100,"org.eclipse.ui.edit.paste",1463259259025
deactivated,workbench,org.eclipse.ui.workbench,3.7.0.I20110519-0100,"",1463259260659
activated,workbench,org.eclipse.ui.workbench,3.7.0.I20110519-0100,"",1463259265238
executed,command,org.eclipse.ui,3.7.0.I20110602-0100,"org.eclipse.ui.edit.paste",1463259266387
executed,command,org.eclipse.ui,3.7.0.I20110602-0100,"org.eclipse.ui.edit.copy",1463259273464
executed,command,org.eclipse.ui,3.7.0.I20110602-0100,"org.eclipse.ui.edit.copy",1463259273614
executed,command,org.eclipse.ui,3.7.0.I20110602-0100,"org.eclipse.ui.edit.paste",1463259274654
deactivated,workbench,org.eclipse.ui.workbench,3.7.0.I20110519-0100,"",1463259275504
activated,workbench,org.eclipse.ui.workbench,3.7.0.I20110519-0100,"",1463259324858
deactivated,workbench,org.eclipse.ui.workbench,3.7.0.I20110519-0100,"",1463259328000
activated,workbench,org.eclipse.ui.workbench,3.7.0.I20110519-0100,"",1463259348315
executed,command,org.eclipse.ui,3.7.0.I20110602-0100,"org.eclipse.ui.edit.copy",1463259350452
executed,command,org.eclipse.ui,3.7.0.I20110602-0100,"org.eclipse.ui.edit.copy",1463259350622
executed,command,org.eclipse.ui,3.7.0.I20110602-0100,"org.eclipse.ui.edit.copy",1463259350802
executed,command,org.eclipse.ui,3.7.0.I20110602-0100,"org.eclipse.ui.edit.copy",1463259351012
executed,command,org.eclipse.ui,3.7.0.I20110602-0100,"org.eclipse.ui.edit.copy",1463259351282
executed,command,org.eclipse.ui,3.7.0.I20110602-0100,"org.eclipse.ui.edit.paste",1463259354744
deactivated,workbench,org.eclipse.ui.workbench,3.7.0.I20110519-0100,"",1463259367557
activated,workbench,org.eclipse.ui.workbench,3.7.0.I20110519-0100,"",1463259374092
executed,command,org.eclipse.ui,3.7.0.I20110602-0100,"org.eclipse.ui.edit.paste",1463259375199
deactivated,workbench,org.eclipse.ui.workbench,3.7.0.I20110519-0100,"",1463259377187
activated,workbench,org.eclipse.ui.workbench,3.7.0.I20110519-0100,"",1463259380227
executed,command,org.eclipse.ui,3.7.0.I20110602-0100,"org.eclipse.ui.edit.paste",1463259381271
executed,command,org.eclipse.ui,3.7.0.I20110602-0100,"org.eclipse.ui.file.saveAll",1463259382725
executed,command,org.eclipse.ui,3.7.0.I20110602-0100,"org.eclipse.ui.edit.copy",1463259392304
executed,command,org.eclipse.ui,3.7.0.I20110602-0100,"org.eclipse.ui.edit.copy",1463259392454
executed,command,org.eclipse.ui,3.7.0.I20110602-0100,"org.eclipse.ui.edit.paste",1463259393564
deactivated,workbench,org.eclipse.ui.workbench,3.7.0.I20110519-0100,"",1463259395144
activated,workbench,org.eclipse.ui.workbench,3.7.0.I20110519-0100,"",1463259399342
executed,command,org.eclipse.ui,3.7.0.I20110602-0100,"org.eclipse.ui.edit.paste",1463259400229
executed,command,org.eclipse.ui,3.7.0.I20110602-0100,"org.eclipse.ui.file.save",1463259408116
deactivated,workbench,org.eclipse.ui.workbench,3.7.0.I20110519-0100,"",1463259411568
activated,workbench,org.eclipse.ui.workbench,3.7.0.I20110519-0100,"",1463259428853
deactivated,workbench,org.eclipse.ui.workbench,3.7.0.I20110519-0100,"",1463259432888
activated,workbench,org.eclipse.ui.workbench,3.7.0.I20110519-0100,"",1463259462640
executed,command,org.eclipse.ui,3.7.0.I20110602-0100,"org.eclipse.ui.edit.copy",1463259463995
executed,command,org.eclipse.ui,3.7.0.I20110602-0100,"org.eclipse.ui.edit.copy",1463259464165
executed,command,org.eclipse.ui,3.7.0.I20110602-0100,"org.eclipse.ui.edit.copy",1463259464305
executed,command,org.eclipse.ui,3.7.0.I20110602-0100,"org.eclipse.ui.edit.paste",1463259466460
deactivated,workbench,org.eclipse.ui.workbench,3.7.0.I20110519-0100,"",1463259482457
activated,workbench,org.eclipse.ui.workbench,3.7.0.I20110519-0100,"",1463259484841
executed,command,org.eclipse.ui,3.7.0.I20110602-0100,"org.eclipse.ui.edit.paste",1463259485778
deactivated,workbench,org.eclipse.ui.workbench,3.7.0.I20110519-0100,"",1463259488206
activated,workbench,org.eclipse.ui.workbench,3.7.0.I20110519-0100,"",1463259491951
executed,command,org.eclipse.ui,3.7.0.I20110602-0100,"org.eclipse.ui.edit.paste",1463259493595
executed,command,org.eclipse.ui,3.7.0.I20110602-0100,"org.eclipse.ui.file.save",1463259495011
executed,command,org.eclipse.ui,3.7.0.I20110602-0100,"org.eclipse.ui.edit.copy",1463259523461
executed,command,org.eclipse.ui,3.7.0.I20110602-0100,"org.eclipse.ui.edit.copy",1463259523561
executed,command,org.eclipse.ui,3.7.0.I20110602-0100,"org.eclipse.ui.edit.copy",1463259523731
executed,command,org.eclipse.ui,3.7.0.I20110602-0100,"org.eclipse.ui.edit.paste",1463259525081
deactivated,workbench,org.eclipse.ui.workbench,3.7.0.I20110519-0100,"",1463259526646
activated,workbench,org.eclipse.ui.workbench,3.7.0.I20110519-0100,"",1463259531694
executed,command,org.eclipse.ui,3.7.0.I20110602-0100,"org.eclipse.ui.edit.paste",1463259532859
executed,command,org.eclipse.ui,3.7.0.I20110602-0100,"org.eclipse.ui.edit.copy",1463259535799
executed,command,org.eclipse.ui,3.7.0.I20110602-0100,"org.eclipse.ui.edit.paste",1463259536749
executed,command,org.eclipse.ui,3.7.0.I20110602-0100,"org.eclipse.ui.file.save",1463259537979
deactivated,workbench,org.eclipse.ui.workbench,3.7.0.I20110519-0100,"",1463259539153
activated,workbench,org.eclipse.ui.workbench,3.7.0.I20110519-0100,"",1463259568086
executed,command,org.eclipse.ui,3.7.0.I20110602-0100,"org.eclipse.ui.edit.copy",1463259570005
executed,command,org.eclipse.ui,3.7.0.I20110602-0100,"org.eclipse.ui.edit.copy",1463259570165
executed,command,org.eclipse.ui,3.7.0.I20110602-0100,"org.eclipse.ui.edit.copy",1463259570314
executed,command,org.eclipse.ui,3.7.0.I20110602-0100,"org.eclipse.ui.edit.paste",1463259571374
deactivated,workbench,org.eclipse.ui.workbench,3.7.0.I20110519-0100,"",1463259585752
activated,workbench,org.eclipse.ui.workbench,3.7.0.I20110519-0100,"",1463259590189
executed,command,org.eclipse.ui,3.7.0.I20110602-0100,"org.eclipse.ui.edit.paste",1463259591054
deactivated,workbench,org.eclipse.ui.workbench,3.7.0.I20110519-0100,"",1463259592951
activated,workbench,org.eclipse.ui.workbench,3.7.0.I20110519-0100,"",1463259596323
executed,command,org.eclipse.ui,3.7.0.I20110602-0100,"org.eclipse.ui.edit.paste",1463259597180
executed,command,org.eclipse.ui,3.7.0.I20110602-0100,"org.eclipse.ui.file.save",1463259598277
executed,command,org.eclipse.ui,3.7.0.I20110602-0100,"org.eclipse.ui.edit.copy",1463259601426
executed,command,org.eclipse.ui,3.7.0.I20110602-0100,"org.eclipse.ui.edit.copy",1463259601518
executed,command,org.eclipse.ui,3.7.0.I20110602-0100,"org.eclipse.ui.edit.paste",1463259602467
deactivated,workbench,org.eclipse.ui.workbench,3.7.0.I20110519-0100,"",1463259604002
activated,workbench,org.eclipse.ui.workbench,3.7.0.I20110519-0100,"",1463259608768
executed,command,org.eclipse.ui,3.7.0.I20110602-0100,"org.eclipse.ui.edit.paste",1463259609879
executed,command,org.eclipse.ui,3.7.0.I20110602-0100,"org.eclipse.ui.edit.copy",1463259611963
executed,command,org.eclipse.ui,3.7.0.I20110602-0100,"org.eclipse.ui.edit.copy",1463259612094
executed,command,org.eclipse.ui,3.7.0.I20110602-0100,"org.eclipse.ui.edit.paste",1463259612951
executed,command,org.eclipse.ui,3.7.0.I20110602-0100,"org.eclipse.ui.file.save",1463259614217
deactivated,workbench,org.eclipse.ui.workbench,3.7.0.I20110519-0100,"",1463259616109
activated,workbench,org.eclipse.ui.workbench,3.7.0.I20110519-0100,"",1463259735181
deactivated,workbench,org.eclipse.ui.workbench,3.7.0.I20110519-0100,"",1463259746618
activated,workbench,org.eclipse.ui.workbench,3.7.0.I20110519-0100,"",1463259751919
executed,command,org.eclipse.ui,3.7.0.I20110602-0100,"org.eclipse.ui.edit.copy",1463259756196
executed,command,org.eclipse.ui,3.7.0.I20110602-0100,"org.eclipse.ui.edit.copy",1463259756277
executed,command,org.eclipse.ui,3.7.0.I20110602-0100,"org.eclipse.ui.edit.copy",1463259756408
executed,command,org.eclipse.ui,3.7.0.I20110602-0100,"org.eclipse.ui.edit.paste",1463259757615
deactivated,workbench,org.eclipse.ui.workbench,3.7.0.I20110519-0100,"",1463259772881
activated,workbench,org.eclipse.ui.workbench,3.7.0.I20110519-0100,"",1463259775516
executed,command,org.eclipse.ui,3.7.0.I20110602-0100,"org.eclipse.ui.edit.paste",1463259776748
deactivated,workbench,org.eclipse.ui.workbench,3.7.0.I20110519-0100,"",1463259778910
activated,workbench,org.eclipse.ui.workbench,3.7.0.I20110519-0100,"",1463259781931
executed,command,org.eclipse.ui,3.7.0.I20110602-0100,"org.eclipse.ui.edit.paste",1463259782882
executed,command,org.eclipse.ui,3.7.0.I20110602-0100,"org.eclipse.ui.file.save",1463259785985
deactivated,workbench,org.eclipse.ui.workbench,3.7.0.I20110519-0100,"",1463259812614
activated,workbench,org.eclipse.ui.workbench,3.7.0.I20110519-0100,"",1463259815737
executed,command,org.eclipse.ui,3.7.0.I20110602-0100,"org.eclipse.ui.edit.copy",1463259819395
executed,command,org.eclipse.ui,3.7.0.I20110602-0100,"org.eclipse.ui.edit.copy",1463259819575
executed,command,org.eclipse.ui,3.7.0.I20110602-0100,"org.eclipse.ui.edit.copy",1463259819745
executed,command,org.eclipse.ui,3.7.0.I20110602-0100,"org.eclipse.ui.edit.paste",1463259820925
deactivated,workbench,org.eclipse.ui.workbench,3.7.0.I20110519-0100,"",1463259823195
activated,workbench,org.eclipse.ui.workbench,3.7.0.I20110519-0100,"",1463259825958
executed,command,org.eclipse.ui,3.7.0.I20110602-0100,"org.eclipse.ui.edit.paste",1463259827497
executed,command,org.eclipse.ui,3.7.0.I20110602-0100,"org.eclipse.ui.edit.copy",1463259831776
executed,command,org.eclipse.ui,3.7.0.I20110602-0100,"org.eclipse.ui.edit.copy",1463259831908
executed,command,org.eclipse.ui,3.7.0.I20110602-0100,"org.eclipse.ui.edit.paste",1463259833418
executed,command,org.eclipse.ui,3.7.0.I20110602-0100,"org.eclipse.ui.file.save",1463259834856
deactivated,workbench,org.eclipse.ui.workbench,3.7.0.I20110519-0100,"",1463259839343
activated,workbench,org.eclipse.ui.workbench,3.7.0.I20110519-0100,"",1463259852848
executed,command,org.eclipse.ui,3.7.0.I20110602-0100,"org.eclipse.ui.edit.copy",1463259856489
executed,command,org.eclipse.ui,3.7.0.I20110602-0100,"org.eclipse.ui.edit.copy",1463259859744
executed,command,org.eclipse.ui,3.7.0.I20110602-0100,"org.eclipse.ui.edit.copy",1463259859754
executed,command,org.eclipse.ui,3.7.0.I20110602-0100,"org.eclipse.ui.edit.paste",1463259861086
deactivated,workbench,org.eclipse.ui.workbench,3.7.0.I20110519-0100,"",1463259872376
activated,workbench,org.eclipse.ui.workbench,3.7.0.I20110519-0100,"",1463259875383
executed,command,org.eclipse.ui,3.7.0.I20110602-0100,"org.eclipse.ui.edit.paste",1463259876471
deactivated,workbench,org.eclipse.ui.workbench,3.7.0.I20110519-0100,"",1463259878304
activated,workbench,org.eclipse.ui.workbench,3.7.0.I20110519-0100,"",1463259881649
executed,command,org.eclipse.ui,3.7.0.I20110602-0100,"org.eclipse.ui.edit.paste",1463259882723
executed,command,org.eclipse.ui,3.7.0.I20110602-0100,"org.eclipse.ui.file.save",1463259883896
deactivated,workbench,org.eclipse.ui.workbench,3.7.0.I20110519-0100,"",1463259887240
activated,workbench,org.eclipse.ui.workbench,3.7.0.I20110519-0100,"",1463259889249
executed,command,org.eclipse.ui,3.7.0.I20110602-0100,"org.eclipse.ui.edit.copy",1463259890532
executed,command,org.eclipse.ui,3.7.0.I20110602-0100,"org.eclipse.ui.edit.copy",1463259890661
executed,command,org.eclipse.ui,3.7.0.I20110602-0100,"org.eclipse.ui.edit.paste",1463259891897
deactivated,workbench,org.eclipse.ui.workbench,3.7.0.I20110519-0100,"",1463259893350
activated,workbench,org.eclipse.ui.workbench,3.7.0.I20110519-0100,"",1463259895617
executed,command,org.eclipse.ui,3.7.0.I20110602-0100,"org.eclipse.ui.edit.paste",1463259897296
executed,command,org.eclipse.ui,3.7.0.I20110602-0100,"org.eclipse.ui.edit.copy",1463259900764
executed,command,org.eclipse.ui,3.7.0.I20110602-0100,"org.eclipse.ui.edit.copy",1463259900886
executed,command,org.eclipse.ui,3.7.0.I20110602-0100,"org.eclipse.ui.edit.paste",1463259903119
executed,command,org.eclipse.ui,3.7.0.I20110602-0100,"org.eclipse.ui.file.save",1463259904432
deactivated,workbench,org.eclipse.ui.workbench,3.7.0.I20110519-0100,"",1463259905915
activated,workbench,org.eclipse.ui.workbench,3.7.0.I20110519-0100,"",1463259921129
executed,command,org.eclipse.ui,3.7.0.I20110602-0100,"org.eclipse.ui.edit.copy",1463259922577
executed,command,org.eclipse.ui,3.7.0.I20110602-0100,"org.eclipse.ui.edit.copy",1463259922747
executed,command,org.eclipse.ui,3.7.0.I20110602-0100,"org.eclipse.ui.edit.copy",1463259922897
executed,command,org.eclipse.ui,3.7.0.I20110602-0100,"org.eclipse.ui.edit.paste",1463259924015
deactivated,workbench,org.eclipse.ui.workbench,3.7.0.I20110519-0100,"",1463259925845
activated,workbench,org.eclipse.ui.workbench,3.7.0.I20110519-0100,"",1463259928207
executed,command,org.eclipse.ui,3.7.0.I20110602-0100,"org.eclipse.ui.edit.paste",1463259929732
deactivated,workbench,org.eclipse.ui.workbench,3.7.0.I20110519-0100,"",1463259931112
activated,workbench,org.eclipse.ui.workbench,3.7.0.I20110519-0100,"",1463259934477
executed,command,org.eclipse.ui,3.7.0.I20110602-0100,"org.eclipse.ui.edit.copy",1463259936740
executed,command,org.eclipse.ui,3.7.0.I20110602-0100,"org.eclipse.ui.edit.copy",1463259936884
executed,command,org.eclipse.ui,3.7.0.I20110602-0100,"org.eclipse.ui.edit.paste",1463259938666
deactivated,workbench,org.eclipse.ui.workbench,3.7.0.I20110519-0100,"",1463259948521
activated,workbench,org.eclipse.ui.workbench,3.7.0.I20110519-0100,"",1463259969634
executed,command,org.eclipse.ui,3.7.0.I20110602-0100,"org.eclipse.ui.edit.copy",1463259975705
executed,command,org.eclipse.ui,3.7.0.I20110602-0100,"org.eclipse.ui.edit.copy",1463259975869
executed,command,org.eclipse.ui,3.7.0.I20110602-0100,"org.eclipse.ui.edit.copy",1463259976032
executed,command,org.eclipse.ui,3.7.0.I20110602-0100,"org.eclipse.ui.edit.paste",1463259977606
deactivated,workbench,org.eclipse.ui.workbench,3.7.0.I20110519-0100,"",1463259989631
activated,workbench,org.eclipse.ui.workbench,3.7.0.I20110519-0100,"",1463259992371
executed,command,org.eclipse.ui,3.7.0.I20110602-0100,"org.eclipse.ui.edit.paste",1463259993231
deactivated,workbench,org.eclipse.ui.workbench,3.7.0.I20110519-0100,"",1463259995537
activated,workbench,org.eclipse.ui.workbench,3.7.0.I20110519-0100,"",1463259999175
executed,command,org.eclipse.ui,3.7.0.I20110602-0100,"org.eclipse.ui.edit.paste",1463260000230
executed,command,org.eclipse.ui,3.7.0.I20110602-0100,"org.eclipse.ui.file.save",1463260001405
executed,command,org.eclipse.ui,3.7.0.I20110602-0100,"org.eclipse.ui.edit.copy",1463260012881
executed,command,org.eclipse.ui,3.7.0.I20110602-0100,"org.eclipse.ui.edit.copy",1463260013041
executed,command,org.eclipse.ui,3.7.0.I20110602-0100,"org.eclipse.ui.edit.paste",1463260014183
deactivated,workbench,org.eclipse.ui.workbench,3.7.0.I20110519-0100,"",1463260015271
activated,workbench,org.eclipse.ui.workbench,3.7.0.I20110519-0100,"",1463260019142
executed,command,org.eclipse.ui,3.7.0.I20110602-0100,"org.eclipse.ui.edit.paste",1463260020621
executed,command,org.eclipse.ui,3.7.0.I20110602-0100,"org.eclipse.ui.edit.copy",1463260022733
executed,command,org.eclipse.ui,3.7.0.I20110602-0100,"org.eclipse.ui.edit.paste",1463260024354
deactivated,workbench,org.eclipse.ui.workbench,3.7.0.I20110519-0100,"",1463260032522
activated,workbench,org.eclipse.ui.workbench,3.7.0.I20110519-0100,"",1463260042668
executed,command,org.eclipse.ui,3.7.0.I20110602-0100,"org.eclipse.ui.edit.copy",1463260043899
executed,command,org.eclipse.ui,3.7.0.I20110602-0100,"org.eclipse.ui.edit.copy",1463260044051
executed,command,org.eclipse.ui,3.7.0.I20110602-0100,"org.eclipse.ui.edit.paste",1463260045210
deactivated,workbench,org.eclipse.ui.workbench,3.7.0.I20110519-0100,"",1463260061795
activated,workbench,org.eclipse.ui.workbench,3.7.0.I20110519-0100,"",1463260067115
executed,command,org.eclipse.ui,3.7.0.I20110602-0100,"org.eclipse.ui.edit.paste",1463260068100
deactivated,workbench,org.eclipse.ui.workbench,3.7.0.I20110519-0100,"",1463260072148
activated,workbench,org.eclipse.ui.workbench,3.7.0.I20110519-0100,"",1463260075548
executed,command,org.eclipse.ui,3.7.0.I20110602-0100,"org.eclipse.ui.edit.paste",1463260077223
executed,command,org.eclipse.ui,3.7.0.I20110602-0100,"org.eclipse.ui.file.saveAll",1463260078697
executed,command,org.eclipse.ui,3.7.0.I20110602-0100,"org.eclipse.ui.edit.copy",1463260116321
executed,command,org.eclipse.ui,3.7.0.I20110602-0100,"org.eclipse.ui.edit.copy",1463260116501
executed,command,org.eclipse.ui,3.7.0.I20110602-0100,"org.eclipse.ui.edit.copy",1463260116633
executed,command,org.eclipse.ui,3.7.0.I20110602-0100,"org.eclipse.ui.edit.paste",1463260117883
deactivated,workbench,org.eclipse.ui.workbench,3.7.0.I20110519-0100,"",1463260120044
activated,workbench,org.eclipse.ui.workbench,3.7.0.I20110519-0100,"",1463260125727
executed,command,org.eclipse.ui,3.7.0.I20110602-0100,"org.eclipse.ui.edit.paste",1463260127574
executed,command,org.eclipse.ui,3.7.0.I20110602-0100,"org.eclipse.ui.edit.copy",1463260129832
executed,command,org.eclipse.ui,3.7.0.I20110602-0100,"org.eclipse.ui.edit.copy",1463260129982
executed,command,org.eclipse.ui,3.7.0.I20110602-0100,"org.eclipse.ui.edit.copy",1463260130112
executed,command,org.eclipse.ui,3.7.0.I20110602-0100,"org.eclipse.ui.edit.paste",1463260132208
executed,command,org.eclipse.ui,3.7.0.I20110602-0100,"org.eclipse.ui.edit.copy",1463260153975
executed,command,org.eclipse.ui,3.7.0.I20110602-0100,"org.eclipse.ui.edit.copy",1463260154135
executed,command,org.eclipse.ui,3.7.0.I20110602-0100,"org.eclipse.ui.edit.copy",1463260154265
executed,command,org.eclipse.ui,3.7.0.I20110602-0100,"org.eclipse.ui.edit.paste",1463260155595
deactivated,workbench,org.eclipse.ui.workbench,3.7.0.I20110519-0100,"",1463260157770
activated,workbench,org.eclipse.ui.workbench,3.7.0.I20110519-0100,"",1463260176269
deactivated,workbench,org.eclipse.ui.workbench,3.7.0.I20110519-0100,"",1463260184477
activated,workbench,org.eclipse.ui.workbench,3.7.0.I20110519-0100,"",1463260187937
executed,command,org.eclipse.ui,3.7.0.I20110602-0100,"org.eclipse.ui.file.save",1463260207713
executed,command,org.eclipse.ui,3.7.0.I20110602-0100,"org.eclipse.ui.edit.copy",1463260214374
executed,command,org.eclipse.ui,3.7.0.I20110602-0100,"org.eclipse.ui.edit.copy",1463260214524
executed,command,org.eclipse.ui,3.7.0.I20110602-0100,"org.eclipse.ui.edit.paste",1463260215810
deactivated,workbench,org.eclipse.ui.workbench,3.7.0.I20110519-0100,"",1463260217701
activated,workbench,org.eclipse.ui.workbench,3.7.0.I20110519-0100,"",1463260228059
executed,command,org.eclipse.ui,3.7.0.I20110602-0100,"org.eclipse.ui.edit.paste",1463260229334
executed,command,org.eclipse.ui,3.7.0.I20110602-0100,"org.eclipse.ui.edit.copy",1463260231456
executed,command,org.eclipse.ui,3.7.0.I20110602-0100,"org.eclipse.ui.edit.copy",1463260231586
executed,command,org.eclipse.ui,3.7.0.I20110602-0100,"org.eclipse.ui.edit.paste",1463260233596
deactivated,workbench,org.eclipse.ui.workbench,3.7.0.I20110519-0100,"",1463260239858
activated,workbench,org.eclipse.ui.workbench,3.7.0.I20110519-0100,"",1463260245313
executed,command,org.eclipse.ui,3.7.0.I20110602-0100,"org.eclipse.ui.edit.copy",1463260248595
executed,command,org.eclipse.ui,3.7.0.I20110602-0100,"org.eclipse.ui.edit.copy",1463260248673
executed,command,org.eclipse.ui,3.7.0.I20110602-0100,"org.eclipse.ui.edit.copy",1463260248853
executed,command,org.eclipse.ui,3.7.0.I20110602-0100,"org.eclipse.ui.edit.paste",1463260254875
deactivated,workbench,org.eclipse.ui.workbench,3.7.0.I20110519-0100,"",1463260259080
activated,workbench,org.eclipse.ui.workbench,3.7.0.I20110519-0100,"",1463260266769
deactivated,workbench,org.eclipse.ui.workbench,3.7.0.I20110519-0100,"",1463260282334
activated,workbench,org.eclipse.ui.workbench,3.7.0.I20110519-0100,"",1463260285514
executed,command,org.eclipse.ui,3.7.0.I20110602-0100,"org.eclipse.ui.edit.paste",1463260286539
deactivated,workbench,org.eclipse.ui.workbench,3.7.0.I20110519-0100,"",1463260288316
activated,workbench,org.eclipse.ui.workbench,3.7.0.I20110519-0100,"",1463260291399
executed,command,org.eclipse.ui,3.7.0.I20110602-0100,"org.eclipse.ui.edit.paste",1463260293367
executed,command,org.eclipse.ui,3.7.0.I20110602-0100,"org.eclipse.ui.file.save",1463260294669
deactivated,workbench,org.eclipse.ui.workbench,3.7.0.I20110519-0100,"",1463260296383
activated,workbench,org.eclipse.ui.workbench,3.7.0.I20110519-0100,"",1463260297066
executed,command,org.eclipse.ui,3.7.0.I20110602-0100,"org.eclipse.ui.edit.copy",1463260299877
executed,command,org.eclipse.ui,3.7.0.I20110602-0100,"org.eclipse.ui.edit.copy",1463260300007
executed,command,org.eclipse.ui,3.7.0.I20110602-0100,"org.eclipse.ui.edit.paste",1463260301129
deactivated,workbench,org.eclipse.ui.workbench,3.7.0.I20110519-0100,"",1463260303635
activated,workbench,org.eclipse.ui.workbench,3.7.0.I20110519-0100,"",1463260306208
executed,command,org.eclipse.ui,3.7.0.I20110602-0100,"org.eclipse.ui.edit.paste",1463260307414
executed,command,org.eclipse.ui,3.7.0.I20110602-0100,"org.eclipse.ui.edit.copy",1463260312810
executed,command,org.eclipse.ui,3.7.0.I20110602-0100,"org.eclipse.ui.edit.copy",1463260312950
executed,command,org.eclipse.ui,3.7.0.I20110602-0100,"org.eclipse.ui.edit.paste",1463260314820
executed,command,org.eclipse.ui,3.7.0.I20110602-0100,"org.eclipse.ui.file.saveAll",1463260316514
deactivated,workbench,org.eclipse.ui.workbench,3.7.0.I20110519-0100,"",1463260371633
activated,workbench,org.eclipse.ui.workbench,3.7.0.I20110519-0100,"",1463260388669
deactivated,workbench,org.eclipse.ui.workbench,3.7.0.I20110519-0100,"",1463260394474
activated,workbench,org.eclipse.ui.workbench,3.7.0.I20110519-0100,"",1463260404977
executed,command,org.eclipse.ui,3.7.0.I20110602-0100,"org.eclipse.ui.edit.copy",1463260408317
executed,command,org.eclipse.ui,3.7.0.I20110602-0100,"org.eclipse.ui.edit.copy",1463260408472
executed,command,org.eclipse.ui,3.7.0.I20110602-0100,"org.eclipse.ui.edit.paste",1463260409632
deactivated,workbench,org.eclipse.ui.workbench,3.7.0.I20110519-0100,"",1463260424764
activated,workbench,org.eclipse.ui.workbench,3.7.0.I20110519-0100,"",1463260428198
executed,command,org.eclipse.ui,3.7.0.I20110602-0100,"org.eclipse.ui.edit.paste",1463260429076
deactivated,workbench,org.eclipse.ui.workbench,3.7.0.I20110519-0100,"",1463260433127
