#
# A fatal error has been detected by the Java Runtime Environment:
#
#  EXCEPTION_ACCESS_VIOLATION (0xc0000005) at pc=0x0185200d, pid=4328, tid=7916
#
# JRE version: Java(TM) SE Runtime Environment (7.0_79-b15) (build 1.7.0_79-b15)
# Java VM: Java HotSpot(TM) Client VM (24.79-b02 mixed mode windows-x86 )
# Problematic frame:
# j  utils.ArrayUtils.girarEquipes([Ldominio/Equipe;)[Ldominio/Equipe;+0
#
# Failed to write core dump. Minidumps are not enabled by default on client versions of Windows
#
# If you would like to submit a bug report, please visit:
#   http://bugreport.java.com/bugreport/crash.jsp
#

---------------  T H R E A D  ---------------

Current thread (0x0125c800):  JavaThread "main" [_thread_in_Java, id=7916, stack(0x003b0000,0x00400000)]

siginfo: ExceptionCode=0xc0000005, reading address 0x2773ade0

Registers:
EAX=0x13b9d078, EBX=0x13b9d6f0, ECX=0x13b9d6f0, EDX=0x03ab126c
ESP=0x003ff7cc, EBP=0x003ff7f8, ESI=0x13b9f458, EDI=0x003ff808
EIP=0x0185200d, EFLAGS=0x00010216

Top of Stack: (sp=0x003ff7cc)
0x003ff7cc:   03ab1260 00000000 03ab1260 003ff7d8
0x003ff7dc:   13b9f448 003ff808 13b9fb48 00000000
0x003ff7ec:   13b9f4a0 00000000 003ff808 003ff82c
0x003ff7fc:   0184341a 00000000 03ab1188 03ab1260
0x003ff80c:   003ff80c 13b96b80 003ff848 13b96ea8
0x003ff81c:   00000000 13b96be8 003ff808 003ff838
0x003ff82c:   003ff86c 01843287 00000001 00000000
0x003ff83c:   03ab0ea0 03ab0d18 00000032 03a85b50 

Instructions: (pc=0x0185200d)
0x01851fed:   84 60 00 00 00 8b 58 04 8b 42 04 8b 80 90 00 00
0x01851ffd:   00 8d 54 8a 0c 3b d8 0f 84 33 00 00 00 8b 48 10
0x0185200d:   3b 04 0b 0f 84 27 00 00 00 83 f9 18 0f 85 19 00
0x0185201d:   00 00 57 8b 7b 1c 8b 4f 08 83 c7 0c 85 c0 f2 af 


Register to memory mapping:

EAX=0x13b9d078 is an oop
{constant pool} 
 - klass: {other class}
 - holder: 0x13b9d6f0
 - cache: 0x13b9d8b0
 -   1 :  : "Array index out of range: " {0x3ab2b08}
 -   2 :  : '()Ljava/lang/String;'
 -   3 :  : '()V'
 -   4 :  : '(I)V'
 -   5 :  : '(Ljava/lang/String;)V'
 -   6 :  : '<init>'
 -   7 :  : 'Array index out of range: '
 -   8 :  : 'Code'
 -   9 :  : 'ConstantValue'
 -  10 :  : 'J'
 -  11 :  : 'LineNumberTable'
 -  12 :  : 'SourceFile'
 -  13 :  : 'append'
 -  14 :  : 'java/lang/ArrayIndexOutOfBoundsException'
 -  15 :  : 'java/lang/IndexOutOfBoundsException'
 -  16 :  : 'java/lang/StringBuilder'
 -  17 :  : 'serialVersionUID'
 -  18 :  : 'toString'
 -  19 :  : -5116101128118950844
 -  21 :  : 'java/lang/ArrayIndexOutOfBoundsException'
 -  22 :  : 'java/lang/IndexOutOfBoundsException' {0x13b9d548}
 -  23 :  : 'java/lang/StringBuilder'
 -  24 :  : '(I)Ljava/lang/StringBuilder;'
 -  25 :  : '(Ljava/lang/String;)Ljava/lang/StringBuilder;'
 -  26 :  : name_index=6 signature_index=3
 -  27 :  : name_index=18 signature_index=2
 -  28 :  : name_index=6 signature_index=5
 -  29 :  : name_index=13 signature_index=24
 -  30 :  : name_index=13 signature_index=25
 -  31 :  : klass_index=22 name_and_type_index=26
 -  32 :  : klass_index=22 name_and_type_index=28
 -  33 :  : klass_index=23 name_and_type_index=26
 -  34 :  : klass_index=23 name_and_type_index=27
 -  35 :  : klass_index=23 name_and_type_index=29
 -  36 :  : klass_index=23 name_and_type_index=30
 -  37 :  : 'ArrayIndexOutOfBoundsException.java'

EBX=0x13b9d6f0 is an oop
{instance class} 
 - klass: {other class}
ECX=0x13b9d6f0 is an oop
{instance class} 
 - klass: {other class}
EDX=
[error occurred during error reporting (printing register info), id 0xc0000005]

Stack: [0x003b0000,0x00400000],  sp=0x003ff7cc,  free space=317k
Native frames: (J=compiled Java code, j=interpreted, Vv=VM code, C=native code)
j  utils.ArrayUtils.girarEquipes([Ldominio/Equipe;)[Ldominio/Equipe;+0
j  utils.CalendarioUtils.cruzarDuasDivisoesCompleto(Ldominio/Calendario;I[Ldominio/Equipe;[Ldominio/Equipe;I)V+32
j  utils.CalendarioUtils.cruzarConferencia(Ldominio/Calendario;I[Ldominio/Equipe;[Ldominio/Equipe;[Ldominio/Equipe;I)V+23
j  utils.CalendarioUtils.getCalendarioAleatorio()Ldominio/Calendario;+265
j  Teste.main([Ljava/lang/String;)V+0
v  ~StubRoutines::call_stub
V  [jvm.dll+0x14234a]
V  [jvm.dll+0x206ebe]
V  [jvm.dll+0x1423cd]
V  [jvm.dll+0xcb345]
V  [jvm.dll+0xd5ff7]
C  [javaw.exe+0x2070]
C  [javaw.exe+0xa601]
C  [javaw.exe+0xa68b]
C  [kernel32.dll+0x51154]
C  [ntdll.dll+0x5b299]
C  [ntdll.dll+0x5b26c]


---------------  P R O C E S S  ---------------

Java Threads: ( => current thread )
  0x17a6c000 JavaThread "Service Thread" daemon [_thread_blocked, id=9136, stack(0x18430000,0x18480000)]
  0x17a5c000 JavaThread "C1 CompilerThread0" daemon [_thread_blocked, id=7312, stack(0x18660000,0x186b0000)]
  0x17a56800 JavaThread "JDWP Command Reader" daemon [_thread_in_native, id=4496, stack(0x185b0000,0x18600000)]
  0x17a54000 JavaThread "JDWP Event Helper Thread" daemon [_thread_blocked, id=6896, stack(0x180c0000,0x18110000)]
  0x17a44800 JavaThread "JDWP Transport Listener: dt_socket" daemon [_thread_blocked, id=8292, stack(0x184c0000,0x18510000)]
  0x17a3b400 JavaThread "Attach Listener" daemon [_thread_blocked, id=9144, stack(0x03890000,0x038e0000)]
  0x17a38000 JavaThread "Signal Dispatcher" daemon [_thread_blocked, id=7740, stack(0x17ce0000,0x17d30000)]
  0x17a0d800 JavaThread "Finalizer" daemon [_thread_blocked, id=8544, stack(0x17c50000,0x17ca0000)]
  0x17a08800 JavaThread "Reference Handler" daemon [_thread_blocked, id=7748, stack(0x03980000,0x039d0000)]
=>0x0125c800 JavaThread "main" [_thread_in_Java, id=7916, stack(0x003b0000,0x00400000)]

Other Threads:
  0x17a03c00 VMThread [stack: 0x038e0000,0x03930000] [id=7264]
  0x17a88c00 WatcherThread [stack: 0x18510000,0x18560000] [id=6836]

VM state:not at safepoint (normal execution)

VM Mutex/Monitor currently owned by a thread: None

Heap
 def new generation   total 4928K, used 731K [0x03a00000, 0x03f50000, 0x08f50000)
  eden space 4416K,  16% used [0x03a00000, 0x03ab6d58, 0x03e50000)
  from space 512K,   0% used [0x03e50000, 0x03e50000, 0x03ed0000)
  to   space 512K,   0% used [0x03ed0000, 0x03ed0000, 0x03f50000)
 tenured generation   total 10944K, used 0K [0x08f50000, 0x09a00000, 0x13a00000)
   the space 10944K,   0% used [0x08f50000, 0x08f50000, 0x08f50200, 0x09a00000)
 compacting perm gen  total 12288K, used 1662K [0x13a00000, 0x14600000, 0x17a00000)
   the space 12288K,  13% used [0x13a00000, 0x13b9fbf8, 0x13b9fc00, 0x14600000)
No shared spaces configured.

Card table byte_map: [0x01720000,0x017d0000] byte_map_base: 0x01703000

Polling page: 0x00100000

Code Cache  [0x01840000, 0x018d8000, 0x03840000)
 total_blobs=138 nmethods=18 adapters=66 free_code_cache=32175Kb largest_free_block=32947584

Compilation events (10 events):
Event: 4.479 Thread 0x17a5c000   14             java.lang.Object::equals (11 bytes)
Event: 4.479 Thread 0x17a5c000 nmethod 14 0x018d3148 code [0x018d3240, 0x018d32d0]
Event: 4.479 Thread 0x17a5c000   15             java.util.ArrayList::remove (77 bytes)
Event: 4.479 Thread 0x17a5c000 nmethod 15 0x018d3308 code [0x018d3440, 0x018d35e4]
Event: 4.479 Thread 0x17a5c000   16             java.util.ArrayList::ensureExplicitCapacity (26 bytes)
Event: 4.479 Thread 0x17a5c000 nmethod 16 0x018d37c8 code [0x018d38d0, 0x018d398c]
Event: 4.479 Thread 0x17a5c000   17             utils.ArrayUtils::toArrayEquipe (38 bytes)
Event: 4.480 Thread 0x17a5c000 nmethod 17 0x018d3a48 code [0x018d3b60, 0x018d3d4c]
Event: 4.481 Thread 0x17a5c000   18             java.util.ArrayList::fastRemove (57 bytes)
Event: 4.481 Thread 0x17a5c000 nmethod 18 0x018d3f08 code [0x018d4010, 0x018d418c]

GC Heap History (0 events):
No events

Deoptimization events (0 events):
No events

Internal exceptions (10 events):
Event: 4.448 Thread 0x0125c800 Threw 0x03a84220 at C:\re\jdk7u79\2331\hotspot\src\share\vm\prims\jvm.cpp:1304
Event: 4.451 Thread 0x0125c800 Threw 0x03a85ec0 at C:\re\jdk7u79\2331\hotspot\src\share\vm\prims\jvm.cpp:1304
Event: 4.454 Thread 0x0125c800 Threw 0x03a8a0d0 at C:\re\jdk7u79\2331\hotspot\src\share\vm\prims\jvm.cpp:1304
Event: 4.457 Thread 0x0125c800 Threw 0x03a8ebe8 at C:\re\jdk7u79\2331\hotspot\src\share\vm\prims\jvm.cpp:1304
Event: 4.460 Thread 0x0125c800 Threw 0x03a91d90 at C:\re\jdk7u79\2331\hotspot\src\share\vm\prims\jvm.cpp:1304
Event: 4.463 Thread 0x0125c800 Threw 0x03a94000 at C:\re\jdk7u79\2331\hotspot\src\share\vm\prims\jvm.cpp:1304
Event: 4.467 Thread 0x0125c800 Threw 0x03a97458 at C:\re\jdk7u79\2331\hotspot\src\share\vm\prims\jvm.cpp:1304
Event: 4.472 Thread 0x0125c800 Threw 0x03a99d20 at C:\re\jdk7u79\2331\hotspot\src\share\vm\prims\jvm.cpp:1304
Event: 4.475 Thread 0x0125c800 Threw 0x03a9c180 at C:\re\jdk7u79\2331\hotspot\src\share\vm\prims\jvm.cpp:1304
Event: 4.482 Thread 0x0125c800 Threw 0x03ab1260 at C:\re\jdk7u79\2331\hotspot\src\share\vm\interpreter\interpreterRuntime.cpp:347

Events (10 events):
Event: 23.472 Executing VM operation: RedefineClasses
Event: 23.473 Executing VM operation: RedefineClasses done
Event: 23.474 Executing VM operation: EnterInterpOnlyMode
Event: 23.474 Executing VM operation: EnterInterpOnlyMode done
Event: 23.474 Executing VM operation: GetCurrentLocation
Event: 23.474 Executing VM operation: GetCurrentLocation done
Event: 23.474 Executing VM operation: ChangeSingleStep
Event: 23.474 Executing VM operation: ChangeSingleStep done
Event: 23.484 Executing VM operation: ChangeSingleStep
Event: 23.484 Executing VM operation: ChangeSingleStep done


Dynamic libraries:
0x012e0000 - 0x0130f000 	C:\Program Files\Java\jdk1.7.0_79\bin\javaw.exe
0x77770000 - 0x778ac000 	C:\Windows\SYSTEM32\ntdll.dll
0x75ce0000 - 0x75db4000 	C:\Windows\system32\kernel32.dll
0x75bb0000 - 0x75bfb000 	C:\Windows\system32\KERNELBASE.dll
0x772f0000 - 0x77390000 	C:\Windows\system32\ADVAPI32.dll
0x76cd0000 - 0x76d7c000 	C:\Windows\system32\msvcrt.dll
0x77630000 - 0x77649000 	C:\Windows\SYSTEM32\sechost.dll
0x77240000 - 0x772e1000 	C:\Windows\system32\RPCRT4.dll
0x778d0000 - 0x77999000 	C:\Windows\system32\USER32.dll
0x775e0000 - 0x7762e000 	C:\Windows\system32\GDI32.dll
0x76070000 - 0x7607a000 	C:\Windows\system32\LPK.dll
0x76d80000 - 0x76e1e000 	C:\Windows\system32\USP10.dll
0x74780000 - 0x7491e000 	C:\Windows\WinSxS\x86_microsoft.windows.common-controls_6595b64144ccf1df_6.0.7600.16661_none_420fe3fa2b8113bd\COMCTL32.dll
0x75c80000 - 0x75cd7000 	C:\Windows\system32\SHLWAPI.dll
0x75f70000 - 0x75f8f000 	C:\Windows\system32\IMM32.DLL
0x75f90000 - 0x7605c000 	C:\Windows\system32\MSCTF.dll
0x56b70000 - 0x56c2f000 	C:\Program Files\Java\jdk1.7.0_79\jre\bin\msvcr100.dll
0x6e790000 - 0x6eb19000 	C:\Program Files\Java\jdk1.7.0_79\jre\bin\client\jvm.dll
0x70ad0000 - 0x70ad7000 	C:\Windows\system32\WSOCK32.dll
0x76e50000 - 0x76e85000 	C:\Windows\system32\WS2_32.dll
0x778b0000 - 0x778b6000 	C:\Windows\system32\NSI.dll
0x746e0000 - 0x74712000 	C:\Windows\system32\WINMM.dll
0x76060000 - 0x76065000 	C:\Windows\system32\PSAPI.DLL
0x68600000 - 0x6860c000 	C:\Program Files\Java\jdk1.7.0_79\jre\bin\verify.dll
0x65a30000 - 0x65a50000 	C:\Program Files\Java\jdk1.7.0_79\jre\bin\java.dll
0x5ce50000 - 0x5ce7a000 	C:\Program Files\Java\jdk1.7.0_79\jre\bin\jdwp.dll
0x68750000 - 0x68757000 	C:\Program Files\Java\jdk1.7.0_79\jre\bin\npt.dll
0x66cc0000 - 0x66cd3000 	C:\Program Files\Java\jdk1.7.0_79\jre\bin\zip.dll
0x676a0000 - 0x676a8000 	C:\Program Files\Java\jdk1.7.0_79\jre\bin\dt_socket.dll
0x72dc0000 - 0x72dd0000 	C:\Windows\system32\NLAapi.dll
0x752e0000 - 0x7531c000 	C:\Windows\System32\mswsock.dll
0x751a0000 - 0x751e4000 	C:\Windows\system32\DNSAPI.dll
0x6e3f0000 - 0x6e3f8000 	C:\Windows\System32\winrnr.dll
0x6e3e0000 - 0x6e3f0000 	C:\Windows\system32\napinsp.dll
0x6e3c0000 - 0x6e3d2000 	C:\Windows\system32\pnrpnsp.dll
0x6f370000 - 0x6f397000 	C:\Program Files\Common Files\Microsoft Shared\Windows Live\WLIDNSP.DLL
0x74760000 - 0x7477c000 	C:\Windows\system32\IPHLPAPI.DLL
0x74750000 - 0x74757000 	C:\Windows\system32\WINNSI.DLL
0x72c90000 - 0x72cc8000 	C:\Windows\System32\fwpuclnt.dll
0x6f7e0000 - 0x6f7e6000 	C:\Windows\system32\rasadhlp.dll
0x73910000 - 0x73915000 	C:\Windows\System32\wshtcpip.dll
0x68320000 - 0x6840b000 	C:\Windows\system32\dbghelp.dll

VM Arguments:
jvm_args: -agentlib:jdwp=transport=dt_socket,suspend=y,address=localhost:50334 -Dfile.encoding=Cp1252 
java_command: Teste
Launcher Type: SUN_STANDARD

Environment Variables:
JAVA_HOME=C:\Program Files\Java\jdk1.7.0_79
CLASSPATH=C:\Program Files\Java\jdk1.7.0_79\lib
PATH=C:\Program Files\Java\jdk1.7.0_79\jre\bin;C:/Program Files/Java/jre1.8.0_25/bin/client;C:/Program Files/Java/jre1.8.0_25/bin;C:/Program Files/Java/jre1.8.0_25/lib/i386;C:\Program Files\Common Files\Microsoft Shared\Windows Live;C:\Windows\system32;C:\Windows;C:\Windows\System32\Wbem;C:\Windows\System32\WindowsPowerShell\v1.0\;C:\Program Files\Windows Live\Shared;C:\Program Files\Internet Explorer;C:\Program Files\B1 Free Archiver;C:\Program Files\TortoiseSVN\bin;C:\Program Files\Git\cmd;C:\Ruby193\bin;C:\Program Files\Java\jdk1.7.0_79\bin;C:\Program Files\Common Files\Nero\Lib\;C:\Users\Luan e Daiana\Desktop\Programas\Eclipse;
USERNAME=Luan e Daiana
OS=Windows_NT
PROCESSOR_IDENTIFIER=x86 Family 6 Model 23 Stepping 10, GenuineIntel



---------------  S Y S T E M  ---------------

OS: Windows 7 Build 7600 

CPU:total 2 (2 cores per cpu, 1 threads per core) family 6 model 23 stepping 10, cmov, cx8, fxsr, mmx, sse, sse2, sse3, ssse3, tsc

Memory: 4k page, physical 2061492k(297628k free), swap 4337900k(539988k free)

vm_info: Java HotSpot(TM) Client VM (24.79-b02) for windows-x86 JRE (1.7.0_79-b15), built on Apr 10 2015 16:49:13 by "java_re" with unknown MS VC++:1600

time: Sun May 15 20:52:57 2016
elapsed time: 24 seconds

